XML Loading result: No error
Validating XML...
XML validated successfully...
volume
 id: cantilever
 primitive: cube
 scale: 0.2, 0.02, 0.02
 translate: 0, 0, 0
 rot: 0, 0, 0
 
volume
 id: anchor
 primitive: cube
 scale: 0.005, 0.021, 0.021
 translate: -0.0025, -0.0005, -0.0005
 
volume
 id: loadpoint
 primitive: cube
 scale: 0.005, 0.021, 0.021
 translate: 0.1975, -0.0005, -0.0005
 
volume
 id: trace
 primitive: cube
 scale: 0.005, 0.021, 0.021
 translate: 0.1975, -0.0005, -0.0005
 
loadcase
 id: L1
  fix
   volume: anchor
  constant
   volume: loadpoint
   magnitude: 0, -200, 0
  accel
   volume: cantilever
   magnitude: 0, 0, 0
 
material
 id: steel-lattice
  elasticity
   modulus: 113.8
   unit: GPa
  lattice
   cell: cubic
   vertexmass: 0.00034859
   size: 0.005, 0.005, 0.005
   bardiam: 0.001
   volume: cantilever
   offset: 0, 0, 0
 
rules
 vol: cantilever
  damping
   amount: 0.01
  material
   matid: steel-lattice
  output
   destination: window
   size: 1920, 1080
  load
   load-id: L1
  telemetry
   output_dir: output/varying_z_32022cb1/euler/0.02_1/
  integration
   method: euler
  stop
   simulation_time: 100
   wall_clock_time: 0
   time_unit: ms
 
1
cantilever xMin: 0
cantilever xMax: 0.2
cantilever yMin: 0
cantilever yMax: 0.02
cantilever zMin: 0
cantilever zMax: 0.02
1
anchor xMin: -0.0025
anchor xMax: 0.0025
anchor yMin: -0.0005
anchor yMax: 0.0205
anchor zMin: -0.0005
anchor zMax: 0.0205
1
loadpoint xMin: 0.1975
loadpoint xMax: 0.2025
loadpoint yMin: -0.0005
loadpoint yMax: 0.0205
loadpoint zMin: -0.0005
loadpoint zMax: 0.0205
1
trace xMin: 0.1975
trace xMax: 0.2025
trace yMin: -0.0005
trace yMax: 0.0205
trace zMin: -0.0005
trace zMax: 0.0205
cantilever xMin: 0
cantilever xMax: 0.2
cantilever yMin: 0
cantilever yMax: 0.02
cantilever zMin: 0
cantilever zMax: 0.02
Output dir: output/varying_z_32022cb1/euler/0.02_1/
Number under force: 25
Number fixed: 25
Number traced: 25
All masses were unique
cantilever_scale_z: 0.02
Volume meters: 8e-05
force is: 10
26	0.000856672
11	0.000362438
26	0.000856672
17	0.000560132
11	0.000362438
26	0.000856672
17	0.000560132
7	0.000230643
26	0.000856672
17	0.000560132
17	0.000560132
11	0.000362438
17	0.000560132
11	0.000362438
17	0.000560132
11	0.000362438
17	0.000560132
17	0.000560132
17	0.000560132
17	0.000560132
11	0.000362438
17	0.000560132
26	0.000856672
26	0.000856672
11	0.000362438
17	0.000560132
11	0.000362438
17	0.000560132
17	0.000560132
11	0.000362438
26	0.000856672
17	0.000560132
11	0.000362438
17	0.000560132
26	0.000856672
11	0.000362438
17	0.000560132
11	0.000362438
17	0.000560132
11	0.000362438
17	0.000560132
26	0.000856672
11	0.000362438
7	0.000230643
11	0.000362438
17	0.000560132
11	0.000362438
17	0.000560132
11	0.000362438
17	0.000560132
11	0.000362438
26	0.000856672
17	0.000560132
11	0.000362438
11	0.000362438
11	0.000362438
26	0.000856672
11	0.000362438
17	0.000560132
26	0.000856672
17	0.000560132
17	0.000560132
11	0.000362438
17	0.000560132
11	0.000362438
17	0.000560132
26	0.000856672
11	0.000362438
11	0.000362438
11	0.000362438
26	0.000856672
17	0.000560132
11	0.000362438
11	0.000362438
11	0.000362438
26	0.000856672
11	0.000362438
17	0.000560132
11	0.000362438
17	0.000560132
17	0.000560132
11	0.000362438
26	0.000856672
11	0.000362438
17	0.000560132
26	0.000856672
26	0.000856672
26	0.000856672
11	0.000362438
17	0.000560132
17	0.000560132
11	0.000362438
26	0.000856672
11	0.000362438
11	0.000362438
17	0.000560132
17	0.000560132
17	0.000560132
17	0.000560132
11	0.000362438
11	0.000362438
11	0.000362438
11	0.000362438
26	0.000856672
26	0.000856672
17	0.000560132
26	0.000856672
17	0.000560132
17	0.000560132
17	0.000560132
17	0.000560132
17	0.000560132
26	0.000856672
11	0.000362438
11	0.000362438
11	0.000362438
11	0.000362438
17	0.000560132
26	0.000856672
11	0.000362438
11	0.000362438
17	0.000560132
11	0.000362438
11	0.000362438
17	0.000560132
26	0.000856672
11	0.000362438
17	0.000560132
26	0.000856672
17	0.000560132
11	0.000362438
26	0.000856672
17	0.000560132
26	0.000856672
17	0.000560132
11	0.000362438
17	0.000560132
17	0.000560132
17	0.000560132
17	0.000560132
17	0.000560132
17	0.000560132
17	0.000560132
17	0.000560132
17	0.000560132
26	0.000856672
17	0.000560132
11	0.000362438
17	0.000560132
17	0.000560132
17	0.000560132
17	0.000560132
26	0.000856672
17	0.000560132
11	0.000362438
26	0.000856672
17	0.000560132
17	0.000560132
26	0.000856672
17	0.000560132
17	0.000560132
11	0.000362438
26	0.000856672
17	0.000560132
17	0.000560132
17	0.000560132
11	0.000362438
17	0.000560132
17	0.000560132
17	0.000560132
17	0.000560132
17	0.000560132
26	0.000856672
26	0.000856672
17	0.000560132
17	0.000560132
17	0.000560132
17	0.000560132
11	0.000362438
17	0.000560132
17	0.000560132
17	0.000560132
17	0.000560132
17	0.000560132
26	0.000856672
26	0.000856672
26	0.000856672
17	0.000560132
26	0.000856672
17	0.000560132
17	0.000560132
17	0.000560132
17	0.000560132
17	0.000560132
11	0.000362438
26	0.000856672
26	0.000856672
11	0.000362438
11	0.000362438
26	0.000856672
17	0.000560132
17	0.000560132
17	0.000560132
11	0.000362438
17	0.000560132
17	0.000560132
17	0.000560132
17	0.000560132
26	0.000856672
17	0.000560132
17	0.000560132
17	0.000560132
26	0.000856672
26	0.000856672
17	0.000560132
11	0.000362438
17	0.000560132
17	0.000560132
17	0.000560132
17	0.000560132
11	0.000362438
17	0.000560132
17	0.000560132
17	0.000560132
17	0.000560132
26	0.000856672
26	0.000856672
26	0.000856672
17	0.000560132
17	0.000560132
17	0.000560132
17	0.000560132
17	0.000560132
26	0.000856672
17	0.000560132
17	0.000560132
11	0.000362438
17	0.000560132
11	0.000362438
17	0.000560132
11	0.000362438
17	0.000560132
17	0.000560132
17	0.000560132
17	0.000560132
17	0.000560132
26	0.000856672
17	0.000560132
26	0.000856672
17	0.000560132
17	0.000560132
17	0.000560132
7	0.000230643
17	0.000560132
26	0.000856672
11	0.000362438
17	0.000560132
17	0.000560132
17	0.000560132
17	0.000560132
17	0.000560132
26	0.000856672
17	0.000560132
17	0.000560132
17	0.000560132
26	0.000856672
11	0.000362438
17	0.000560132
17	0.000560132
26	0.000856672
17	0.000560132
17	0.000560132
17	0.000560132
17	0.000560132
17	0.000560132
17	0.000560132
26	0.000856672
17	0.000560132
17	0.000560132
17	0.000560132
17	0.000560132
17	0.000560132
17	0.000560132
11	0.000362438
26	0.000856672
11	0.000362438
17	0.000560132
26	0.000856672
17	0.000560132
17	0.000560132
17	0.000560132
17	0.000560132
17	0.000560132
17	0.000560132
17	0.000560132
17	0.000560132
17	0.000560132
17	0.000560132
26	0.000856672
17	0.000560132
17	0.000560132
17	0.000560132
17	0.000560132
17	0.000560132
26	0.000856672
17	0.000560132
17	0.000560132
17	0.000560132
26	0.000856672
17	0.000560132
17	0.000560132
17	0.000560132
11	0.000362438
17	0.000560132
17	0.000560132
17	0.000560132
26	0.000856672
11	0.000362438
17	0.000560132
17	0.000560132
17	0.000560132
26	0.000856672
17	0.000560132
17	0.000560132
17	0.000560132
17	0.000560132
17	0.000560132
17	0.000560132
17	0.000560132
17	0.000560132
26	0.000856672
17	0.000560132
26	0.000856672
26	0.000856672
17	0.000560132
26	0.000856672
17	0.000560132
17	0.000560132
26	0.000856672
17	0.000560132
26	0.000856672
26	0.000856672
26	0.000856672
11	0.000362438
17	0.000560132
11	0.000362438
17	0.000560132
17	0.000560132
11	0.000362438
17	0.000560132
26	0.000856672
17	0.000560132
11	0.000362438
17	0.000560132
17	0.000560132
26	0.000856672
11	0.000362438
11	0.000362438
11	0.000362438
11	0.000362438
11	0.000362438
11	0.000362438
11	0.000362438
11	0.000362438
11	0.000362438
11	0.000362438
17	0.000560132
11	0.000362438
17	0.000560132
26	0.000856672
11	0.000362438
17	0.000560132
17	0.000560132
11	0.000362438
26	0.000856672
11	0.000362438
17	0.000560132
11	0.000362438
17	0.000560132
26	0.000856672
11	0.000362438
26	0.000856672
26	0.000856672
11	0.000362438
11	0.000362438
11	0.000362438
11	0.000362438
11	0.000362438
26	0.000856672
26	0.000856672
11	0.000362438
17	0.000560132
26	0.000856672
11	0.000362438
11	0.000362438
26	0.000856672
11	0.000362438
11	0.000362438
17	0.000560132
11	0.000362438
17	0.000560132
17	0.000560132
7	0.000230643
11	0.000362438
11	0.000362438
17	0.000560132
26	0.000856672
17	0.000560132
17	0.000560132
17	0.000560132
17	0.000560132
26	0.000856672
11	0.000362438
17	0.000560132
17	0.000560132
26	0.000856672
17	0.000560132
17	0.000560132
26	0.000856672
17	0.000560132
17	0.000560132
17	0.000560132
17	0.000560132
17	0.000560132
17	0.000560132
17	0.000560132
17	0.000560132
17	0.000560132
11	0.000362438
17	0.000560132
17	0.000560132
17	0.000560132
26	0.000856672
26	0.000856672
17	0.000560132
17	0.000560132
11	0.000362438
17	0.000560132
17	0.000560132
17	0.000560132
17	0.000560132
17	0.000560132
26	0.000856672
17	0.000560132
11	0.000362438
26	0.000856672
26	0.000856672
17	0.000560132
17	0.000560132
26	0.000856672
17	0.000560132
17	0.000560132
17	0.000560132
26	0.000856672
17	0.000560132
17	0.000560132
17	0.000560132
17	0.000560132
26	0.000856672
11	0.000362438
26	0.000856672
26	0.000856672
26	0.000856672
26	0.000856672
26	0.000856672
26	0.000856672
26	0.000856672
26	0.000856672
26	0.000856672
26	0.000856672
11	0.000362438
26	0.000856672
17	0.000560132
26	0.000856672
26	0.000856672
26	0.000856672
26	0.000856672
26	0.000856672
17	0.000560132
26	0.000856672
26	0.000856672
26	0.000856672
26	0.000856672
26	0.000856672
26	0.000856672
26	0.000856672
17	0.000560132
26	0.000856672
26	0.000856672
17	0.000560132
17	0.000560132
26	0.000856672
7	0.000230643
17	0.000560132
26	0.000856672
26	0.000856672
26	0.000856672
26	0.000856672
17	0.000560132
26	0.000856672
26	0.000856672
26	0.000856672
26	0.000856672
26	0.000856672
11	0.000362438
26	0.000856672
26	0.000856672
17	0.000560132
26	0.000856672
17	0.000560132
26	0.000856672
11	0.000362438
26	0.000856672
26	0.000856672
26	0.000856672
26	0.000856672
26	0.000856672
26	0.000856672
26	0.000856672
11	0.000362438
11	0.000362438
17	0.000560132
26	0.000856672
17	0.000560132
26	0.000856672
26	0.000856672
26	0.000856672
11	0.000362438
26	0.000856672
26	0.000856672
26	0.000856672
26	0.000856672
26	0.000856672
26	0.000856672
26	0.000856672
26	0.000856672
17	0.000560132
26	0.000856672
26	0.000856672
26	0.000856672
26	0.000856672
26	0.000856672
17	0.000560132
26	0.000856672
11	0.000362438
17	0.000560132
17	0.000560132
26	0.000856672
26	0.000856672
26	0.000856672
17	0.000560132
26	0.000856672
26	0.000856672
26	0.000856672
17	0.000560132
26	0.000856672
26	0.000856672
26	0.000856672
17	0.000560132
26	0.000856672
26	0.000856672
26	0.000856672
26	0.000856672
26	0.000856672
17	0.000560132
26	0.000856672
17	0.000560132
17	0.000560132
26	0.000856672
17	0.000560132
26	0.000856672
26	0.000856672
11	0.000362438
26	0.000856672
26	0.000856672
17	0.000560132
26	0.000856672
26	0.000856672
17	0.000560132
17	0.000560132
11	0.000362438
26	0.000856672
17	0.000560132
26	0.000856672
26	0.000856672
26	0.000856672
26	0.000856672
17	0.000560132
17	0.000560132
17	0.000560132
17	0.000560132
17	0.000560132
17	0.000560132
26	0.000856672
17	0.000560132
17	0.000560132
17	0.000560132
26	0.000856672
17	0.000560132
17	0.000560132
26	0.000856672
26	0.000856672
17	0.000560132
17	0.000560132
17	0.000560132
11	0.000362438
17	0.000560132
17	0.000560132
26	0.000856672
17	0.000560132
17	0.000560132
17	0.000560132
17	0.000560132
26	0.000856672
17	0.000560132
17	0.000560132
26	0.000856672
17	0.000560132
17	0.000560132
17	0.000560132
17	0.000560132
17	0.000560132
26	0.000856672
26	0.000856672
17	0.000560132
17	0.000560132
26	0.000856672
17	0.000560132
11	0.000362438
17	0.000560132
17	0.000560132
17	0.000560132
17	0.000560132
26	0.000856672
17	0.000560132
17	0.000560132
11	0.000362438
17	0.000560132
17	0.000560132
17	0.000560132
17	0.000560132
11	0.000362438
17	0.000560132
17	0.000560132
17	0.000560132
17	0.000560132
17	0.000560132
17	0.000560132
17	0.000560132
17	0.000560132
11	0.000362438
17	0.000560132
26	0.000856672
26	0.000856672
26	0.000856672
26	0.000856672
17	0.000560132
26	0.000856672
26	0.000856672
26	0.000856672
17	0.000560132
26	0.000856672
17	0.000560132
26	0.000856672
26	0.000856672
17	0.000560132
26	0.000856672
17	0.000560132
11	0.000362438
26	0.000856672
26	0.000856672
26	0.000856672
26	0.000856672
26	0.000856672
26	0.000856672
26	0.000856672
17	0.000560132
17	0.000560132
26	0.000856672
26	0.000856672
26	0.000856672
26	0.000856672
26	0.000856672
26	0.000856672
17	0.000560132
26	0.000856672
26	0.000856672
26	0.000856672
11	0.000362438
26	0.000856672
26	0.000856672
26	0.000856672
26	0.000856672
26	0.000856672
26	0.000856672
26	0.000856672
26	0.000856672
26	0.000856672
26	0.000856672
26	0.000856672
26	0.000856672
26	0.000856672
17	0.000560132
17	0.000560132
26	0.000856672
26	0.000856672
26	0.000856672
26	0.000856672
17	0.000560132
17	0.000560132
17	0.000560132
11	0.000362438
26	0.000856672
26	0.000856672
26	0.000856672
17	0.000560132
26	0.000856672
26	0.000856672
26	0.000856672
26	0.000856672
26	0.000856672
26	0.000856672
17	0.000560132
26	0.000856672
26	0.000856672
26	0.000856672
26	0.000856672
26	0.000856672
26	0.000856672
26	0.000856672
26	0.000856672
26	0.000856672
26	0.000856672
26	0.000856672
26	0.000856672
26	0.000856672
26	0.000856672
17	0.000560132
26	0.000856672
26	0.000856672
26	0.000856672
17	0.000560132
26	0.000856672
17	0.000560132
26	0.000856672
26	0.000856672
11	0.000362438
17	0.000560132
26	0.000856672
26	0.000856672
11	0.000362438
17	0.000560132
17	0.000560132
17	0.000560132
17	0.000560132
17	0.000560132
17	0.000560132
17	0.000560132
17	0.000560132
17	0.000560132
17	0.000560132
17	0.000560132
17	0.000560132
17	0.000560132
17	0.000560132
17	0.000560132
17	0.000560132
17	0.000560132
17	0.000560132
26	0.000856672
11	0.000362438
17	0.000560132
11	0.000362438
17	0.000560132
17	0.000560132
17	0.000560132
17	0.000560132
17	0.000560132
17	0.000560132
17	0.000560132
17	0.000560132
17	0.000560132
17	0.000560132
17	0.000560132
17	0.000560132
17	0.000560132
17	0.000560132
17	0.000560132
11	0.000362438
17	0.000560132
17	0.000560132
17	0.000560132
11	0.000362438
17	0.000560132
17	0.000560132
11	0.000362438
17	0.000560132
26	0.000856672
17	0.000560132
11	0.000362438
17	0.000560132
17	0.000560132
17	0.000560132
26	0.000856672
17	0.000560132
17	0.000560132
17	0.000560132
17	0.000560132
17	0.000560132
17	0.000560132
17	0.000560132
17	0.000560132
17	0.000560132
17	0.000560132
17	0.000560132
17	0.000560132
17	0.000560132
17	0.000560132
17	0.000560132
17	0.000560132
11	0.000362438
17	0.000560132
26	0.000856672
26	0.000856672
26	0.000856672
26	0.000856672
26	0.000856672
26	0.000856672
17	0.000560132
26	0.000856672
26	0.000856672
26	0.000856672
26	0.000856672
26	0.000856672
26	0.000856672
26	0.000856672
26	0.000856672
26	0.000856672
26	0.000856672
26	0.000856672
26	0.000856672
26	0.000856672
26	0.000856672
26	0.000856672
26	0.000856672
26	0.000856672
26	0.000856672
26	0.000856672
26	0.000856672
26	0.000856672
26	0.000856672
26	0.000856672
26	0.000856672
26	0.000856672
26	0.000856672
17	0.000560132
26	0.000856672
26	0.000856672
26	0.000856672
26	0.000856672
26	0.000856672
26	0.000856672
26	0.000856672
26	0.000856672
26	0.000856672
26	0.000856672
26	0.000856672
26	0.000856672
26	0.000856672
26	0.000856672
26	0.000856672
17	0.000560132
26	0.000856672
26	0.000856672
26	0.000856672
26	0.000856672
17	0.000560132
26	0.000856672
26	0.000856672
26	0.000856672
26	0.000856672
26	0.000856672
26	0.000856672
26	0.000856672
26	0.000856672
26	0.000856672
17	0.000560132
17	0.000560132
26	0.000856672
26	0.000856672
26	0.000856672
26	0.000856672
26	0.000856672
26	0.000856672
26	0.000856672
17	0.000560132
26	0.000856672
26	0.000856672
26	0.000856672
17	0.000560132
17	0.000560132
26	0.000856672
26	0.000856672
26	0.000856672
11	0.000362438
26	0.000856672
11	0.000362438
11	0.000362438
26	0.000856672
26	0.000856672
11	0.000362438
17	0.000560132
17	0.000560132
11	0.000362438
17	0.000560132
17	0.000560132
17	0.000560132
17	0.000560132
17	0.000560132
17	0.000560132
17	0.000560132
17	0.000560132
17	0.000560132
11	0.000362438
17	0.000560132
17	0.000560132
17	0.000560132
17	0.000560132
17	0.000560132
17	0.000560132
17	0.000560132
17	0.000560132
11	0.000362438
11	0.000362438
11	0.000362438
11	0.000362438
11	0.000362438
11	0.000362438
11	0.000362438
11	0.000362438
11	0.000362438
17	0.000560132
11	0.000362438
11	0.000362438
17	0.000560132
11	0.000362438
11	0.000362438
11	0.000362438
11	0.000362438
7	0.000230643
17	0.000560132
17	0.000560132
17	0.000560132
17	0.000560132
17	0.000560132
17	0.000560132
17	0.000560132
17	0.000560132
17	0.000560132
17	0.000560132
17	0.000560132
17	0.000560132
17	0.000560132
17	0.000560132
17	0.000560132
17	0.000560132
17	0.000560132
17	0.000560132
17	0.000560132
11	0.000362438
17	0.000560132
17	0.000560132
17	0.000560132
17	0.000560132
17	0.000560132
17	0.000560132
17	0.000560132
17	0.000560132
17	0.000560132
17	0.000560132
17	0.000560132
17	0.000560132
17	0.000560132
17	0.000560132
17	0.000560132
17	0.000560132
11	0.000362438
17	0.000560132
17	0.000560132
17	0.000560132
17	0.000560132
11	0.000362438
17	0.000560132
17	0.000560132
17	0.000560132
17	0.000560132
17	0.000560132
17	0.000560132
17	0.000560132
17	0.000560132
17	0.000560132
17	0.000560132
17	0.000560132
17	0.000560132
11	0.000362438
7	0.000230643
11	0.000362438
11	0.000362438
11	0.000362438
11	0.000362438
11	0.000362438
11	0.000362438
11	0.000362438
11	0.000362438
11	0.000362438
11	0.000362438
11	0.000362438
11	0.000362438
11	0.000362438
11	0.000362438
11	0.000362438
11	0.000362438
11	0.000362438
11	0.000362438
7	0.000230643
Volume mass: 0.64
BBOX From masses: 
mass_xmax: 0.2
mass_xmin: 0
mass_ymax: 0.02
mass_ymin: 0
mass_zmax: 0.02
mass_zmin: 0
Max Spring stiffness: 1.78757e+07
Centroid starting value: 
-1.73411e-09
Number of springs: 9712
Number of masses: 1025
anchor: 25 masses
cantilever: 1025 masses
loadpoint: 25 masses
trace: 25 masses
Total mass: 0.64 kg
"output/varying_z_32022cb1/euler/0.02_1/"
Movement below epsilon
Std Dev Trace: 2.92413e-16
Release damping at: 400ms
Release point position: -0.000138694
Stopped at 100.084 ms
Stopped at 103.211 ms
