
==============NVSMI LOG==============

Timestamp                           : Mon Mar  4 04:20:55 2019
Driver Version                      : 415.27
CUDA Version                        : 10.0

Attached GPUs                       : 1
GPU 00000000:00:04.0
    Product Name                    : Tesla V100-SXM2-16GB
    Product Brand                   : Tesla
    Display Mode                    : Enabled
    Display Active                  : Disabled
    Persistence Mode                : Disabled
    Accounting Mode                 : Disabled
    Accounting Mode Buffer Size     : 4000
    Driver Model
        Current                     : N/A
        Pending                     : N/A
    Serial Number                   : 0322818069604
    GPU UUID                        : GPU-08900e31-c842-b2bd-1171-d83b93aa4884
    Minor Number                    : 0
    VBIOS Version                   : 88.00.13.00.02
    MultiGPU Board                  : No
    Board ID                        : 0x4
    GPU Part Number                 : 900-2G503-6300-000
    Inforom Version
        Image Version               : G503.0201.00.03
        OEM Object                  : 1.1
        ECC Object                  : 5.0
        Power Management Object     : N/A
    GPU Operation Mode
        Current                     : N/A
        Pending                     : N/A
    GPU Virtualization Mode
        Virtualization mode         : Pass-Through
    IBMNPU
        Relaxed Ordering Mode       : N/A
    PCI
        Bus                         : 0x00
        Device                      : 0x04
        Domain                      : 0x0000
        Device Id                   : 0x1DB110DE
        Bus Id                      : 00000000:00:04.0
        Sub System Id               : 0x121210DE
        GPU Link Info
            PCIe Generation
                Max                 : 3
                Current             : 3
            Link Width
                Max                 : 16x
                Current             : 16x
        Bridge Chip
            Type                    : N/A
            Firmware                : N/A
        Replays since reset         : 0
        Tx Throughput               : 0 KB/s
        Rx Throughput               : 0 KB/s
    Fan Speed                       : N/A
    Performance State               : P0
    Clocks Throttle Reasons
        Idle                        : Not Active
        Applications Clocks Setting : Not Active
        SW Power Cap                : Not Active
        HW Slowdown                 : Not Active
            HW Thermal Slowdown     : Not Active
            HW Power Brake Slowdown : Not Active
        Sync Boost                  : Not Active
        SW Thermal Slowdown         : Not Active
        Display Clock Setting       : Not Active
    FB Memory Usage
        Total                       : 16130 MiB
        Used                        : 0 MiB
        Free                        : 16130 MiB
    BAR1 Memory Usage
        Total                       : 16384 MiB
        Used                        : 2 MiB
        Free                        : 16382 MiB
    Compute Mode                    : Default
    Utilization
        Gpu                         : 0 %
        Memory                      : 0 %
        Encoder                     : 0 %
        Decoder                     : 0 %
    Encoder Stats
        Active Sessions             : 0
        Average FPS                 : 0
        Average Latency             : 0
    FBC Stats
        Active Sessions             : 0
        Average FPS                 : 0
        Average Latency             : 0
    Ecc Mode
        Current                     : Enabled
        Pending                     : Enabled
    ECC Errors
        Volatile
            Single Bit            
                Device Memory       : 0
                Register File       : 0
                L1 Cache            : 0
                L2 Cache            : 0
                Texture Memory      : N/A
                Texture Shared      : N/A
                CBU                 : N/A
                Total               : 0
            Double Bit            
                Device Memory       : 0
                Register File       : 0
                L1 Cache            : 0
                L2 Cache            : 0
                Texture Memory      : N/A
                Texture Shared      : N/A
                CBU                 : 0
                Total               : 0
        Aggregate
            Single Bit            
                Device Memory       : 0
                Register File       : 0
                L1 Cache            : 0
                L2 Cache            : 0
                Texture Memory      : N/A
                Texture Shared      : N/A
                CBU                 : N/A
                Total               : 0
            Double Bit            
                Device Memory       : 0
                Register File       : 0
                L1 Cache            : 0
                L2 Cache            : 0
                Texture Memory      : N/A
                Texture Shared      : N/A
                CBU                 : 0
                Total               : 0
    Retired Pages
        Single Bit ECC              : 0
        Double Bit ECC              : 0
        Pending                     : No
    Temperature
        GPU Current Temp            : 42 C
        GPU Shutdown Temp           : 90 C
        GPU Slowdown Temp           : 87 C
        GPU Max Operating Temp      : 83 C
        Memory Current Temp         : 38 C
        Memory Max Operating Temp   : 85 C
    Power Readings
        Power Management            : Supported
        Power Draw                  : 36.16 W
        Power Limit                 : 300.00 W
        Default Power Limit         : 300.00 W
        Enforced Power Limit        : 300.00 W
        Min Power Limit             : 100.00 W
        Max Power Limit             : 300.00 W
    Clocks
        Graphics                    : 1312 MHz
        SM                          : 1312 MHz
        Memory                      : 877 MHz
        Video                       : 1185 MHz
    Applications Clocks
        Graphics                    : 1312 MHz
        Memory                      : 877 MHz
    Default Applications Clocks
        Graphics                    : 1312 MHz
        Memory                      : 877 MHz
    Max Clocks
        Graphics                    : 1530 MHz
        SM                          : 1530 MHz
        Memory                      : 877 MHz
        Video                       : 1372 MHz
    Max Customer Boost Clocks
        Graphics                    : 1530 MHz
    Clock Policy
        Auto Boost                  : N/A
        Auto Boost Default          : N/A
    Processes                       : None

