x,y,z,spring_count
0,0,0,7
0.095,0,0.005,17
0.035,0,0,11
0.02,0,0.01,11
0.005,0,0,11
0.025,0,0,11
0.015,0,0,11
0.01,0,0,11
0.005,0.005,0.005,26
0,0.01,0,11
0.065,0.035,0.005,26
0.02,0,0,11
0.005,0.01,0.01,17
0.03,0,0,11
0.04,0,0,11
0.05,0.01,0,17
0.045,0,0.005,17
0.045,0,0,11
0.085,0.01,0,17
0.005,0.005,0.01,17
0.05,0,0,11
0.055,0,0,11
0.01,0.025,0.01,17
0.09,0.005,0,17
0,0.03,0,11
0.06,0,0,11
0.025,0.01,0,17
0.07,0.02,0.005,26
0.1,0.02,0.005,17
0.08,0.035,0.01,17
0.06,0.03,0,17
0.065,0,0,11
0.095,0.04,0,11
0.04,0.04,0.005,17
0.065,0.035,0.01,17
0.07,0,0,11
0.03,0.005,0.005,26
0.095,0.025,0,17
0.03,0,0.005,17
0.095,0.01,0,17
0.08,0.005,0,17
0.025,0.03,0.01,17
0.01,0.01,0,17
0.08,0.03,0,17
0.09,0.04,0,11
0.075,0,0,11
0.075,0.01,0,17
0.1,0.025,0.01,11
0.08,0,0,11
0.065,0.01,0,17
0.015,0.015,0.005,26
0.045,0.02,0.01,17
0.085,0,0,11
0.095,0.005,0.005,26
0.09,0,0,11
0.01,0.005,0.005,26
0.085,0.015,0.01,17
0.065,0.005,0,17
0.1,0.015,0.005,17
0.035,0.025,0.005,26
0.095,0,0,11
0.1,0,0,7
0.085,0.005,0.01,17
0.075,0.01,0.005,26
0,0.005,0,11
0.065,0.02,0,17
0.08,0.01,0,17
0.06,0.02,0.01,17
0.005,0.025,0.005,26
0.005,0.005,0,17
0.01,0.005,0,17
0.015,0.005,0,17
0.05,0.035,0,17
0.005,0.015,0,17
0.085,0.005,0,17
0.07,0.04,0,11
0.09,0.015,0.01,17
0.02,0.005,0,17
0.04,0.005,0,17
0.08,0.015,0,17
0.025,0.005,0,17
0.01,0,0.005,17
0.03,0.005,0,17
0,0.015,0,11
0.01,0.035,0.01,17
0.035,0.005,0,17
0.045,0.005,0,17
0.015,0.03,0.005,26
0.05,0.005,0,17
0.015,0.01,0,17
0.055,0.005,0,17
0.06,0.005,0,17
0.04,0.03,0.005,26
0.075,0.04,0.005,17
0.07,0.005,0,17
0.075,0.005,0,17
0.03,0.03,0.005,26
0.03,0.04,0.005,17
0.095,0.005,0,17
0.07,0.01,0,17
0.075,0,0.01,11
0.1,0.005,0,11
0.065,0.015,0.01,17
0.06,0.01,0,17
0.005,0.01,0,17
0.085,0.005,0.005,26
0.095,0.01,0.01,17
0.1,0.035,0,11
0.02,0.01,0,17
0.09,0.03,0,17
0.03,0.01,0,17
0.035,0.01,0,17
0.03,0.01,0.01,17
0.005,0.035,0.005,26
0.025,0.025,0,17
0.04,0.01,0,17
0.045,0.01,0,17
0.025,0.015,0.01,17
0.055,0.01,0,17
0.09,0.01,0,17
0.045,0.015,0.005,26
0.1,0.01,0,11
0.01,0.015,0,17
0.015,0.015,0,17
0.02,0.015,0,17
0.055,0.005,0.005,26
0.025,0.015,0,17
0.03,0.015,0,17
0.075,0.03,0.005,26
0.03,0,0.01,11
0.005,0.02,0,17
0.035,0.015,0,17
0.095,0,0.01,11
0.07,0.015,0,17
0.01,0.01,0.005,26
0.04,0.015,0,17
0.05,0.01,0.01,17
0.045,0.015,0,17
0.01,0.04,0.01,11
0.05,0.015,0,17
0.045,0.02,0,17
0.055,0.015,0,17
0,0.015,0.005,17
0.06,0.015,0,17
0.065,0.015,0,17
0.03,0.035,0,17
0.075,0.015,0,17
0.095,0.02,0.005,26
0.03,0.035,0.005,26
0,0.025,0.01,11
0.085,0.015,0,17
0.09,0.015,0,17
0.08,0.03,0.01,17
0.08,0.02,0,17
0.095,0.015,0,17
0.085,0.035,0.01,17
0.085,0.02,0,17
0.1,0.015,0,11
0,0.02,0,11
0.005,0.02,0.005,26
0.01,0.02,0,17
0.015,0.02,0,17
0.02,0.02,0,17
0.025,0.02,0,17
0,0.015,0.01,11
0.075,0.035,0,17
0.03,0.02,0,17
0.095,0.035,0,17
0.035,0.02,0,17
0.04,0.02,0,17
0.035,0.01,0.005,26
0.08,0.02,0.01,17
0.02,0.005,0.01,17
0.05,0.02,0,17
0.055,0.02,0,17
0.05,0.005,0.01,17
0.06,0.02,0,17
0.085,0.02,0.01,17
0.07,0.02,0,17
0.04,0.015,0.01,17
0.075,0.02,0,17
0.005,0.04,0,11
0.025,0.02,0.005,26
0.09,0.02,0,17
0.03,0.04,0,11
0.095,0.02,0,17
0.085,0.03,0.01,17
0.1,0.02,0,11
0.04,0.025,0,17
0.05,0.025,0.005,26
0,0.025,0,11
0.005,0.025,0,17
0.01,0.025,0,17
0.1,0.035,0.005,17
0.015,0.025,0,17
0.03,0.01,0.005,26
0.02,0.025,0,17
0.055,0.01,0.01,17
0.03,0.025,0,17
0.1,0.015,0.01,11
0.035,0.025,0,17
0.045,0.025,0,17
0.05,0.015,0.005,26
0.05,0.025,0,17
0.08,0.01,0.005,26
0.02,0.015,0.005,26
0.055,0.025,0,17
0.005,0.04,0.005,17
0.06,0.025,0,17
0.065,0.025,0,17
0.07,0.005,0.005,26
0.07,0.025,0,17
0.075,0.025,0,17
0.08,0.025,0,17
0.04,0.02,0.01,17
0.085,0.025,0,17
0.055,0.03,0,17
0.015,0.03,0.01,17
0.09,0.025,0,17
0.095,0.03,0.005,26
0.1,0.025,0,11
0.075,0.02,0.01,17
0.07,0.025,0.01,17
0.005,0.03,0,17
0.01,0.03,0,17
0.015,0.03,0,17
0.07,0.03,0.005,26
0.05,0.04,0.005,17
0.04,0.01,0.01,17
0.02,0.03,0,17
0.025,0.03,0,17
0.03,0.03,0,17
0.035,0.04,0.01,11
0.035,0.03,0,17
0,0.035,0,11
0.04,0.03,0,17
0.095,0.035,0.005,26
0.045,0.03,0,17
0.05,0.03,0,17
0.065,0.03,0,17
0.07,0.03,0,17
0.075,0.03,0,17
0.05,0.04,0,11
0.045,0.01,0.01,17
0.045,0.015,0.01,17
0.085,0.03,0,17
0.09,0,0.01,11
0.095,0.03,0,17
0.07,0.01,0.01,17
0.1,0.03,0,11
0,0.025,0.005,17
0.095,0.025,0.005,26
0.005,0.035,0,17
0.01,0.035,0,17
0.05,0.04,0.01,11
0.06,0,0.01,11
0.015,0.035,0,17
0.02,0.035,0,17
0.09,0.02,0.01,17
0.025,0.035,0,17
0.09,0,0.005,17
0.035,0.035,0,17
0.04,0.02,0.005,26
0.065,0.03,0.01,17
0.04,0.035,0,17
0.09,0.005,0.01,17
0.045,0.035,0,17
0.055,0.035,0,17
0.015,0,0.01,11
0.06,0.035,0,17
0.04,0.005,0.01,17
0.065,0.035,0,17
0.06,0.02,0.005,26
0.035,0,0.01,11
0.07,0.035,0,17
0.08,0.035,0,17
0.085,0.035,0,17
0.09,0.01,0.01,17
0.015,0.04,0,11
0.09,0.035,0,17
0,0.04,0,7
0.065,0,0.005,17
0.06,0.005,0.005,26
0.01,0.04,0,11
0.02,0.04,0,11
0.025,0.04,0,11
0.035,0.04,0,11
0.04,0.04,0,11
0.045,0.04,0,11
0.01,0.03,0.005,26
0.055,0.04,0,11
0.07,0.015,0.005,26
0.06,0.04,0,11
0.065,0.04,0,11
0.075,0.04,0,11
0.06,0.04,0.01,11
0.08,0.04,0,11
0.065,0.03,0.005,26
0.075,0.025,0.005,26
0.03,0.03,0.01,17
0.085,0.04,0,11
0.025,0,0.01,11
0.1,0.04,0,7
0.07,0.035,0.005,26
0,0,0.005,11
0.03,0.015,0.005,26
0.005,0,0.005,17
0.06,0.035,0.01,17
0.015,0,0.005,17
0.07,0.04,0.005,17
0.02,0,0.005,17
0.025,0,0.005,17
0.035,0,0.005,17
0,0.03,0.005,17
0.04,0,0.005,17
0.05,0,0.005,17
0.055,0,0.005,17
0.085,0.025,0.005,26
0.06,0,0.005,17
0.07,0,0.005,17
0.075,0,0.005,17
0.075,0.01,0.01,17
0.06,0.03,0.005,26
0.08,0,0.005,17
0.085,0,0.005,17
0.1,0,0.005,11
0,0.005,0.005,17
0.015,0.005,0.005,26
0.02,0.005,0.005,26
0.025,0.005,0.005,26
0.005,0.025,0.01,17
0.035,0.005,0.005,26
0.04,0.005,0.005,26
0.085,0.02,0.005,26
0.045,0.005,0.005,26
0.05,0.005,0.005,26
0.065,0.005,0.005,26
0.075,0.005,0.005,26
0.08,0.005,0.005,26
0.025,0.04,0.005,17
0.095,0.04,0.005,17
0.09,0.005,0.005,26
0.1,0.005,0.005,17
0,0.01,0.005,17
0.005,0.01,0.005,26
0.085,0.03,0.005,26
0.015,0.01,0.005,26
0.02,0.01,0.005,26
0.055,0.02,0.01,17
0.025,0.01,0.005,26
0.04,0.01,0.005,26
0.045,0.01,0.005,26
0.08,0.01,0.01,17
0.05,0.01,0.005,26
0.055,0.01,0.005,26
0.06,0.01,0.005,26
0.035,0.03,0.005,26
0.065,0.01,0.005,26
0.07,0.01,0.005,26
0.035,0.005,0.01,17
0.085,0.01,0.005,26
0.09,0.01,0.005,26
0.095,0.01,0.005,26
0.1,0.01,0.005,17
0.005,0.015,0.005,26
0.01,0.015,0.005,26
0.025,0.015,0.005,26
0.035,0.015,0.005,26
0.07,0.005,0.01,17
0.04,0.015,0.005,26
0.055,0.015,0.005,26
0.1,0.035,0.01,11
0.06,0.015,0.005,26
0.065,0.015,0.005,26
0.095,0.005,0.01,17
0.075,0.015,0.005,26
0.015,0.02,0.01,17
0.08,0.015,0.005,26
0.02,0.02,0.005,26
0.085,0.015,0.005,26
0.09,0.015,0.005,26
0.06,0.04,0.005,17
0.095,0.015,0.005,26
0.03,0.025,0.005,26
0.055,0.04,0.01,11
0.01,0.015,0.01,17
0,0.02,0.005,17
0.01,0.02,0.005,26
0.015,0.02,0.005,26
0.06,0.035,0.005,26
0.1,0.04,0.01,7
0.03,0.02,0.005,26
0.035,0.02,0.005,26
0.045,0.02,0.005,26
0.05,0.02,0.005,26
0.055,0.02,0.005,26
0.09,0.035,0.005,26
0.015,0.005,0.01,17
0.065,0.02,0.005,26
0.1,0,0.01,7
0.075,0.02,0.005,26
0.08,0.02,0.005,26
0.09,0.02,0.005,26
0.01,0.025,0.005,26
0.09,0.03,0.005,26
0.04,0.03,0.01,17
0.015,0.025,0.005,26
0.045,0,0.01,11
0.02,0.025,0.005,26
0.025,0.025,0.005,26
0.04,0.025,0.005,26
0.045,0.035,0.01,17
0.045,0.025,0.005,26
0.005,0,0.01,11
0.055,0.025,0.005,26
0.06,0.025,0.005,26
0.065,0.025,0.005,26
0.085,0.01,0.01,17
0.07,0.025,0.005,26
0.045,0.035,0.005,26
0.075,0.005,0.01,17
0.015,0.04,0.005,17
0.07,0.04,0.01,11
0.08,0.025,0.005,26
0.09,0.025,0.005,26
0.03,0.02,0.01,17
0.1,0.025,0.005,17
0.005,0.02,0.01,17
0.065,0.04,0.005,17
0.005,0.03,0.005,26
0.02,0.03,0.005,26
0.025,0.03,0.005,26
0.045,0.03,0.005,26
0.05,0.03,0.005,26
0.055,0.03,0.005,26
0,0.005,0.01,11
0.08,0.03,0.005,26
0.1,0.03,0.005,17
0.015,0.035,0.005,26
0.085,0.035,0.005,26
0,0.035,0.005,17
0.01,0.035,0.005,26
0.02,0.035,0.005,26
0.025,0.035,0.005,26
0.035,0.035,0.005,26
0.04,0.035,0.005,26
0.05,0.035,0.005,26
0.055,0.035,0.005,26
0.075,0.035,0.005,26
0.08,0.035,0.005,26
0,0.04,0.005,11
0.04,0.025,0.01,17
0.01,0.04,0.005,17
0.02,0.04,0.005,17
0.035,0.04,0.005,17
0.05,0.025,0.01,17
0,0.01,0.01,11
0.045,0.04,0.005,17
0.055,0.04,0.005,17
0.045,0.025,0.01,17
0.08,0.04,0.005,17
0.02,0.01,0.01,17
0.085,0.04,0.005,17
0.09,0.04,0.005,17
0.085,0,0.01,11
0.1,0.04,0.005,11
0,0,0.01,7
0.01,0,0.01,11
0.07,0.02,0.01,17
0.025,0.005,0.01,17
0.005,0.015,0.01,17
0.04,0,0.01,11
0.05,0,0.01,11
0.055,0,0.01,11
0.065,0,0.01,11
0.07,0,0.01,11
0.08,0.025,0.01,17
0.08,0,0.01,11
0.01,0.005,0.01,17
0.03,0.005,0.01,17
0.045,0.005,0.01,17
0.055,0.005,0.01,17
0.06,0.005,0.01,17
0.06,0.015,0.01,17
0.065,0.005,0.01,17
0.08,0.005,0.01,17
0.01,0.03,0.01,17
0.1,0.005,0.01,11
0.01,0.01,0.01,17
0.015,0.01,0.01,17
0.025,0.01,0.01,17
0.035,0.01,0.01,17
0.06,0.01,0.01,17
0.065,0.01,0.01,17
0.1,0.01,0.01,11
0.015,0.015,0.01,17
0.02,0.015,0.01,17
0.095,0.025,0.01,17
0.035,0.025,0.01,17
0.03,0.015,0.01,17
0.035,0.015,0.01,17
0.05,0.015,0.01,17
0.055,0.015,0.01,17
0.095,0.015,0.01,17
0.07,0.015,0.01,17
0.075,0.015,0.01,17
0.08,0.015,0.01,17
0,0.02,0.01,11
0.01,0.02,0.01,17
0.02,0.02,0.01,17
0.09,0.035,0.01,17
0.025,0.02,0.01,17
0.035,0.02,0.01,17
0.05,0.02,0.01,17
0.065,0.02,0.01,17
0.095,0.02,0.01,17
0.1,0.02,0.01,11
0.06,0.025,0.01,17
0.015,0.025,0.01,17
0.02,0.025,0.01,17
0.025,0.025,0.01,17
0.03,0.025,0.01,17
0.055,0.025,0.01,17
0.065,0.025,0.01,17
0.075,0.025,0.01,17
0.045,0.03,0.01,17
0.085,0.025,0.01,17
0.09,0.025,0.01,17
0,0.03,0.01,11
0.005,0.03,0.01,17
0.02,0.03,0.01,17
0.035,0.03,0.01,17
0.05,0.03,0.01,17
0.055,0.03,0.01,17
0.06,0.03,0.01,17
0.07,0.03,0.01,17
0.075,0.03,0.01,17
0.09,0.03,0.01,17
0.095,0.03,0.01,17
0.1,0.03,0.01,11
0.05,0.035,0.01,17
0,0.035,0.01,11
0.005,0.035,0.01,17
0.08,0.04,0.01,11
0.015,0.035,0.01,17
0.02,0.035,0.01,17
0.025,0.035,0.01,17
0.03,0.035,0.01,17
0.035,0.035,0.01,17
0.04,0.035,0.01,17
0.055,0.035,0.01,17
0.07,0.035,0.01,17
0.075,0.035,0.01,17
0.095,0.035,0.01,17
0,0.04,0.01,7
0.005,0.04,0.01,11
0.015,0.04,0.01,11
0.02,0.04,0.01,11
0.025,0.04,0.01,11
0.03,0.04,0.01,11
0.04,0.04,0.01,11
0.045,0.04,0.01,11
0.065,0.04,0.01,11
0.075,0.04,0.01,11
0.085,0.04,0.01,11
0.09,0.04,0.01,11
0.095,0.04,0.01,11
