x,y,z,spring_count
0.055,0.015,0.02,26
0.15,0.02,0.005,17
0.105,0,0,11
0.085,0.015,0.005,26
0.045,0.005,0.02,26
0.14,0.02,0,11
0.085,0,0.03,11
0.125,0.005,0.01,26
0,0,0,7
0.13,0.01,0.005,26
0.065,0.015,0.01,26
0.035,0,0,11
0.005,0,0.005,17
0.095,0,0,11
0.09,0.005,0.015,26
0,0.01,0.015,17
0.095,0.015,0.025,26
0.005,0,0,11
0.085,0.005,0.01,26
0.175,0.015,0.005,26
0.06,0.005,0.01,26
0.025,0,0,11
0.16,0,0.025,17
0.04,0,0,11
0.165,0.005,0.03,17
0.12,0,0,11
0.02,0,0,11
0.065,0.015,0.02,26
0.015,0,0,11
0.01,0,0,11
0.185,0.005,0.015,26
0.095,0.005,0,17
0.075,0.015,0.01,26
0.115,0.015,0.005,26
0.055,0.005,0,17
0.11,0,0.02,17
0.05,0.005,0.005,26
0.03,0,0,11
0.045,0,0,11
0.05,0.015,0.005,26
0.18,0,0.03,11
0.14,0,0,11
0.115,0.005,0.02,26
0.185,0.01,0,17
0.025,0.02,0.01,17
0.11,0.02,0.015,17
0.05,0,0,11
0.175,0.015,0.01,26
0.01,0,0.005,17
0.02,0.005,0,17
0.045,0.01,0.005,26
0.055,0,0,11
0.07,0.02,0.02,17
0.03,0.01,0,17
0.085,0.005,0,17
0.025,0,0.03,11
0.075,0.01,0.01,26
0.005,0.005,0.025,26
0.09,0,0.015,17
0.175,0,0,11
0.06,0.01,0.025,26
0.17,0,0,11
0,0.01,0.02,17
0.025,0.02,0.025,17
0.16,0.015,0.025,26
0.06,0,0,11
0.035,0.02,0.005,17
0.185,0.015,0.005,26
0.19,0.005,0,17
0.065,0,0,11
0.07,0.02,0.01,17
0.03,0.005,0,17
0.07,0,0,11
0.19,0,0.015,17
0.065,0.02,0.02,17
0.145,0.005,0.01,26
0.005,0.005,0.01,26
0.07,0.02,0.03,11
0.11,0,0,11
0.055,0.015,0.03,17
0.15,0.01,0.005,26
0.075,0,0,11
0.075,0,0.015,17
0.07,0.015,0.005,26
0.1,0.005,0,17
0.075,0.01,0.02,26
0.11,0.015,0,17
0.17,0.015,0.015,26
0.17,0.01,0.025,26
0.08,0,0,11
0.08,0.015,0.005,26
0.06,0.005,0.005,26
0.06,0.005,0.015,26
0.065,0.005,0.01,26
0.085,0,0,11
0.05,0.015,0.015,26
0.06,0.01,0,17
0.1,0.02,0.015,17
0.085,0.005,0.02,26
0.075,0.005,0,17
0.01,0.005,0,17
0.09,0,0,11
0.135,0,0,11
0.135,0.015,0,17
0.065,0.01,0.015,26
0.1,0,0,11
0.01,0.015,0.03,17
0.055,0.005,0.025,26
0.045,0.01,0,17
0.025,0.005,0,17
0.04,0.005,0,17
0.12,0,0.02,17
0.115,0,0,11
0.15,0.02,0,11
0.045,0.005,0,17
0.165,0.005,0.02,26
0.055,0.02,0,11
0.015,0.005,0.015,26
0.125,0,0,11
0.13,0,0.01,17
0.13,0,0,11
0.2,0.02,0.01,11
0.145,0,0,11
0.105,0.02,0.015,17
0.1,0.005,0.025,26
0.18,0,0.01,17
0.04,0.005,0.015,26
0.08,0.02,0,11
0.15,0,0,11
0.155,0,0,11
0.175,0.02,0,11
0.16,0,0,11
0.085,0,0.005,17
0.145,0.02,0,11
0.165,0,0,11
0.025,0.02,0.005,17
0.165,0.015,0,17
0.1,0.02,0.02,17
0.07,0.01,0,17
0.18,0,0.02,17
0.1,0,0.015,17
0.13,0,0.025,17
0.18,0,0,11
0.145,0.015,0.005,26
0.095,0.005,0.015,26
0.185,0,0,11
0.19,0.005,0.03,17
0.19,0,0,11
0.025,0.02,0,11
0.195,0,0,11
0.07,0.01,0.015,26
0.07,0.02,0.015,17
0.045,0.02,0,11
0.005,0.01,0.015,26
0.095,0,0.005,17
0.2,0,0,7
0.01,0.01,0.005,26
0.095,0.01,0.01,26
0,0.005,0,11
0.005,0.005,0,17
0.055,0.015,0.005,26
0.05,0.005,0,17
0.16,0.015,0.015,26
0.015,0.005,0,17
0.06,0.015,0,17
0.035,0.01,0,17
0.035,0.005,0,17
0.005,0.015,0.03,17
0.07,0,0.03,11
0.115,0.005,0.01,26
0.09,0.005,0,17
0.06,0.005,0,17
0.115,0.005,0.005,26
0.12,0,0.025,17
0.065,0.005,0,17
0.07,0.005,0,17
0.08,0.005,0,17
0.13,0.005,0.005,26
0.04,0.015,0.015,26
0.105,0.005,0,17
0.14,0,0.005,17
0.115,0.005,0,17
0.01,0,0.02,17
0.165,0,0.005,17
0.11,0.005,0,17
0.045,0.015,0.025,26
0.05,0.02,0.005,17
0.115,0.02,0.025,17
0.12,0.005,0,17
0.085,0.01,0.025,26
0.125,0.005,0,17
0.2,0.01,0.02,17
0.13,0.005,0,17
0.135,0.005,0,17
0.11,0.005,0.01,26
0.14,0.005,0,17
0.145,0.005,0,17
0.2,0.01,0,11
0.15,0.005,0,17
0.085,0,0.015,17
0.07,0.02,0.025,17
0.01,0.005,0.005,26
0.155,0.02,0.025,17
0.155,0.005,0,17
0.155,0.005,0.02,26
0.165,0,0.02,17
0.16,0.005,0,17
0.165,0.005,0,17
0.17,0.005,0,17
0.195,0,0.01,17
0.015,0.01,0.005,26
0.175,0.005,0,17
0.1,0,0.025,17
0.06,0.01,0.015,26
0.095,0.02,0.02,17
0.18,0.015,0.025,26
0.18,0.005,0,17
0.025,0.005,0.025,26
0.185,0.005,0,17
0.115,0.005,0.025,26
0.195,0.005,0,17
0,0.02,0.005,11
0.1,0.01,0.005,26
0.2,0.005,0,11
0.175,0.005,0.01,26
0,0.01,0,11
0.185,0.02,0.015,17
0.005,0.01,0,17
0.05,0.01,0.015,26
0.01,0.01,0,17
0.015,0.01,0,17
0.02,0.01,0,17
0.075,0.005,0.02,26
0.025,0.01,0,17
0.12,0.005,0.005,26
0.04,0.01,0.03,17
0.04,0.01,0,17
0.09,0,0.03,11
0.09,0.01,0,17
0.11,0.005,0.02,26
0.05,0.01,0,17
0.16,0.02,0.005,17
0.02,0.015,0,17
0.055,0.01,0,17
0.025,0.005,0.015,26
0.055,0.015,0.015,26
0.115,0.02,0,11
0.165,0.02,0.01,17
0.185,0,0.03,11
0.065,0.01,0,17
0.06,0.015,0.015,26
0.18,0,0.025,17
0.07,0,0.025,17
0.02,0,0.01,17
0.08,0.01,0.02,26
0.075,0.01,0,17
0.145,0.02,0.02,17
0.08,0.01,0,17
0.085,0.01,0,17
0.09,0.01,0.015,26
0.185,0.005,0.01,26
0.175,0.02,0.03,11
0.13,0.02,0.02,17
0.14,0.01,0,17
0.095,0.01,0,17
0.09,0.02,0.02,17
0.025,0.02,0.015,17
0.1,0.01,0,17
0.16,0.01,0.005,26
0.13,0.01,0.03,17
0.105,0.01,0,17
0.115,0,0.03,11
0.165,0.015,0.025,26
0.05,0,0.005,17
0.115,0.01,0.015,26
0.11,0.01,0,17
0.035,0.015,0,17
0.115,0.01,0,17
0.12,0.01,0,17
0.04,0.01,0.005,26
0.045,0.005,0.015,26
0.125,0.01,0,17
0.11,0.01,0.01,26
0.13,0.01,0,17
0.135,0.01,0,17
0.1,0,0.005,17
0.165,0.015,0.01,26
0.165,0.005,0.015,26
0.08,0.01,0.025,26
0.145,0.01,0,17
0.11,0,0.015,17
0.075,0.02,0.005,17
0.14,0.01,0.01,26
0.15,0.01,0,17
0.095,0.01,0.025,26
0.185,0,0.005,17
0.155,0.01,0,17
0.155,0.015,0,17
0.16,0.01,0,17
0.165,0.01,0,17
0.17,0.01,0,17
0.03,0.015,0.015,26
0.145,0,0.01,17
0.025,0,0.005,17
0.195,0.005,0.03,17
0.175,0.01,0,17
0.06,0.02,0,11
0.14,0,0.01,17
0.12,0.02,0.005,17
0.18,0.01,0,17
0.19,0.01,0,17
0.165,0.02,0.02,17
0.09,0.005,0.005,26
0.125,0,0.015,17
0.13,0,0.02,17
0.015,0.02,0.02,17
0.195,0.01,0,17
0,0.015,0,11
0.005,0.015,0,17
0.035,0.02,0.025,17
0.025,0.015,0,17
0.01,0.015,0,17
0.04,0.01,0.01,26
0.045,0.015,0,17
0.195,0.015,0.015,26
0.075,0.02,0.015,17
0.015,0.015,0,17
0.125,0.015,0.005,26
0.135,0,0.025,17
0.03,0.01,0.005,26
0.18,0.005,0.005,26
0.03,0.015,0,17
0.12,0.01,0.02,26
0.055,0.01,0.01,26
0.04,0.015,0,17
0.05,0.015,0,17
0.005,0,0.01,17
0.055,0.015,0,17
0.145,0.02,0.015,17
0.065,0.015,0,17
0.02,0.005,0.01,26
0.07,0.015,0,17
0.055,0.02,0.005,17
0.12,0.015,0.02,26
0.105,0.02,0.025,17
0.165,0.02,0.005,17
0.075,0.015,0,17
0.06,0,0.015,17
0.08,0.015,0,17
0.115,0.01,0.01,26
0.19,0.01,0.005,26
0.045,0.005,0.005,26
0.08,0.015,0.015,26
0.005,0.005,0.015,26
0.085,0.015,0,17
0.125,0.015,0.02,26
0.01,0.005,0.01,26
0.15,0.01,0.01,26
0.09,0.015,0,17
0.06,0,0.01,17
0.095,0.015,0,17
0.185,0,0.02,17
0.015,0.005,0.005,26
0.1,0.015,0,17
0.2,0,0.015,11
0.11,0.01,0.015,26
0.195,0.015,0.005,26
0.125,0.01,0.02,26
0.105,0.015,0,17
0.115,0.015,0,17
0.01,0.015,0.005,26
0.035,0.005,0.005,26
0.115,0,0.02,17
0.08,0.01,0.005,26
0.12,0.015,0,17
0.035,0.01,0.025,26
0.195,0.02,0,11
0.125,0.015,0,17
0.105,0.015,0.01,26
0.115,0.01,0.005,26
0.13,0.015,0,17
0.14,0.015,0,17
0.13,0.015,0.01,26
0.165,0,0.01,17
0.145,0.015,0,17
0.07,0.015,0.03,17
0.025,0,0.01,17
0.15,0.015,0,17
0.07,0.015,0.01,26
0.16,0.015,0,17
0.17,0.015,0,17
0.165,0.015,0.015,26
0.01,0.02,0.03,11
0.085,0.01,0.01,26
0.055,0.02,0.03,11
0.075,0.005,0.005,26
0,0.015,0.03,11
0.175,0.015,0,17
0.18,0.015,0,17
0.06,0.02,0.01,17
0.1,0.015,0.005,26
0.095,0.005,0.01,26
0.185,0.015,0,17
0.19,0.015,0,17
0.025,0.015,0.03,17
0.195,0.015,0,17
0.065,0,0.02,17
0,0.02,0,7
0.115,0.005,0.015,26
0.2,0.015,0,11
0.13,0.015,0.015,26
0.075,0,0.03,11
0.005,0.02,0,11
0.075,0.005,0.01,26
0.01,0.02,0,11
0.04,0.02,0.005,17
0.045,0.015,0.005,26
0.015,0.02,0,11
0.08,0.015,0.01,26
0.165,0.005,0.025,26
0.02,0.02,0,11
0.03,0.02,0,11
0.07,0.01,0.01,26
0.19,0.015,0.03,17
0.035,0.02,0,11
0.04,0.02,0,11
0.12,0.02,0.025,17
0.09,0.02,0.025,17
0.05,0.02,0,11
0.2,0.015,0.025,17
0.12,0.01,0.01,26
0.11,0,0.005,17
0.065,0.02,0,11
0.185,0.02,0,11
0.065,0.01,0.025,26
0.07,0.02,0,11
0.135,0.015,0.005,26
0.075,0.02,0,11
0.06,0.015,0.02,26
0.14,0.02,0.03,11
0.14,0.015,0.02,26
0.09,0.005,0.025,26
0.045,0.005,0.01,26
0.085,0.02,0,11
0.025,0.01,0.03,17
0.09,0.02,0,11
0.055,0.005,0.03,17
0.155,0.005,0.025,26
0.06,0.005,0.025,26
0.095,0.02,0,11
0.1,0.02,0,11
0.11,0.02,0.03,11
0.105,0.02,0,11
0.11,0.02,0,11
0.11,0.01,0.02,26
0.17,0.005,0.02,26
0.12,0.02,0,11
0.05,0,0.015,17
0.125,0.02,0,11
0.08,0.02,0.01,17
0.13,0.02,0,11
0.135,0.02,0,11
0.155,0.02,0,11
0.09,0.015,0.005,26
0.135,0.015,0.01,26
0.085,0.005,0.005,26
0.16,0.02,0,11
0.165,0.02,0,11
0.1,0.01,0.01,26
0.17,0.02,0,11
0.17,0.02,0.005,17
0.18,0.02,0,11
0.19,0.02,0,11
0.2,0.02,0,7
0.025,0.015,0.02,26
0.04,0.015,0.02,26
0.1,0.02,0.03,11
0,0,0.005,11
0.14,0.02,0.015,17
0.055,0.015,0.01,26
0.015,0,0.005,17
0.2,0.005,0.025,17
0.015,0.015,0.005,26
0.02,0,0.005,17
0.195,0.005,0.005,26
0.065,0.005,0.03,17
0.03,0,0.005,17
0.035,0,0.005,17
0.13,0.015,0.03,17
0.135,0.005,0.005,26
0.04,0,0.005,17
0.045,0,0.005,17
0.02,0.005,0.005,26
0.11,0.005,0.03,17
0.055,0,0.005,17
0.06,0,0.005,17
0.03,0.02,0.005,17
0.065,0,0.005,17
0.16,0.005,0.005,26
0.115,0.015,0.03,17
0.015,0.015,0.025,26
0.08,0.01,0.01,26
0.03,0.005,0.005,26
0.085,0.02,0.025,17
0.05,0.02,0.025,17
0.07,0,0.005,17
0.15,0.005,0.01,26
0.11,0.005,0.015,26
0.075,0,0.005,17
0.08,0,0.005,17
0.145,0.015,0.02,26
0.09,0,0.005,17
0.135,0,0.02,17
0.105,0,0.005,17
0.115,0,0.005,17
0.12,0.02,0.015,17
0.065,0.02,0.005,17
0.12,0,0.005,17
0.085,0,0.02,17
0.125,0,0.005,17
0.165,0.01,0.025,26
0.105,0.01,0.01,26
0.085,0.015,0.03,17
0.11,0,0.01,17
0.04,0,0.015,17
0.145,0.02,0.005,17
0.13,0,0.005,17
0.17,0.02,0.025,17
0.105,0.005,0.01,26
0.005,0.005,0.005,26
0.195,0.01,0.015,26
0.085,0.015,0.02,26
0.135,0,0.005,17
0.155,0.02,0.01,17
0.005,0.015,0.015,26
0.08,0,0.025,17
0.145,0,0.005,17
0.01,0,0.015,17
0.08,0.02,0.03,11
0.15,0,0.005,17
0.155,0,0.005,17
0.19,0.02,0.03,11
0.16,0,0.005,17
0.17,0,0.005,17
0.195,0.005,0.02,26
0.055,0.005,0.015,26
0.175,0,0.005,17
0.07,0.01,0.005,26
0.18,0,0.005,17
0.19,0,0.005,17
0.055,0.01,0.02,26
0.03,0.005,0.03,17
0.02,0,0.02,17
0.195,0,0.005,17
0.2,0,0.005,11
0.155,0.015,0.015,26
0.105,0.015,0.03,17
0,0.005,0.005,17
0.04,0.005,0.01,26
0.025,0.005,0.005,26
0.115,0.02,0.005,17
0.04,0.005,0.005,26
0.055,0.005,0.005,26
0.065,0.005,0.005,26
0.07,0.005,0.005,26
0.045,0,0.01,17
0.2,0.02,0.005,11
0.045,0.02,0.005,17
0.08,0.005,0.005,26
0.045,0,0.025,17
0.075,0.015,0.005,26
0.19,0.015,0.02,26
0.095,0.005,0.005,26
0.1,0.005,0.005,26
0.015,0.005,0.02,26
0.105,0.005,0.005,26
0.1,0,0.03,11
0.14,0.005,0.01,26
0.11,0.005,0.005,26
0.15,0.005,0.02,26
0.005,0.015,0.005,26
0.2,0.02,0.02,11
0.125,0.005,0.005,26
0.14,0.005,0.005,26
0.145,0.005,0.005,26
0.03,0,0.01,17
0.15,0.005,0.005,26
0.155,0.005,0.005,26
0.165,0.005,0.005,26
0.17,0.005,0.005,26
0.09,0.005,0.02,26
0.13,0.02,0.015,17
0.195,0.02,0.025,17
0.04,0,0.01,17
0.175,0.005,0.005,26
0.11,0.015,0.015,26
0.185,0.005,0.005,26
0.035,0,0.015,17
0.19,0.005,0.005,26
0.175,0,0.025,17
0.2,0.005,0.005,17
0.135,0,0.015,17
0.185,0.02,0.02,17
0.05,0.01,0.03,17
0.095,0.015,0.005,26
0,0.01,0.005,17
0.005,0.01,0.005,26
0.02,0.01,0.005,26
0.04,0.02,0.01,17
0.015,0,0.02,17
0.025,0.01,0.005,26
0.15,0.015,0.01,26
0.035,0.01,0.005,26
0.05,0.005,0.01,26
0.05,0.01,0.005,26
0.055,0.01,0.005,26
0.08,0.005,0.015,26
0.06,0.01,0.005,26
0.065,0.01,0.005,26
0.075,0.01,0.005,26
0.085,0.01,0.005,26
0.12,0,0.01,17
0.09,0.01,0.005,26
0.095,0.01,0.005,26
0.19,0,0.02,17
0.105,0.01,0.005,26
0.15,0.01,0.03,17
0.11,0.01,0.005,26
0.12,0.01,0.005,26
0.055,0,0.02,17
0.125,0.01,0.005,26
0.135,0.01,0.005,26
0.14,0.01,0.005,26
0.14,0.015,0.01,26
0.04,0,0.025,17
0.145,0.01,0.005,26
0.035,0.005,0.015,26
0.155,0.01,0.005,26
0.15,0.015,0.015,26
0,0.02,0.015,11
0.165,0.01,0.005,26
0.125,0.015,0.01,26
0.06,0,0.03,11
0.17,0.01,0.005,26
0.175,0.01,0.005,26
0.185,0.01,0.01,26
0.18,0.01,0.005,26
0.185,0.01,0.005,26
0.18,0.01,0.015,26
0.16,0.005,0.03,17
0.195,0.01,0.005,26
0.045,0.02,0.02,17
0.035,0,0.03,11
0.2,0.01,0.005,17
0,0.015,0.005,17
0.07,0.005,0.015,26
0.17,0.01,0.015,26
0.02,0.015,0.005,26
0.13,0.005,0.01,26
0.125,0,0.01,17
0.135,0.02,0.025,17
0.11,0.02,0.005,17
0.025,0.015,0.005,26
0.03,0.015,0.005,26
0.035,0.015,0.005,26
0.1,0.01,0.015,26
0.04,0.015,0.005,26
0.095,0.02,0.015,17
0.06,0.015,0.005,26
0.035,0,0.01,17
0.105,0,0.02,17
0.18,0.02,0.005,17
0.065,0.015,0.005,26
0.04,0.015,0.03,17
0.105,0.015,0.005,26
0.005,0.02,0.02,17
0.125,0.02,0.005,17
0.11,0.015,0.005,26
0.05,0.005,0.03,17
0.12,0.015,0.005,26
0.18,0.02,0.025,17
0.145,0,0.025,17
0.13,0.015,0.005,26
0.035,0.015,0.03,17
0.14,0.015,0.025,26
0.14,0.015,0.005,26
0.035,0.02,0.03,11
0.15,0.015,0.005,26
0.015,0,0.01,17
0.155,0.015,0.005,26
0.16,0.015,0.005,26
0.06,0.02,0.03,11
0.165,0.015,0.005,26
0.02,0.02,0.005,17
0.17,0.015,0.005,26
0.155,0.005,0.015,26
0.185,0.015,0.01,26
0.06,0.01,0.01,26
0.19,0.015,0.01,26
0.18,0.015,0.005,26
0.19,0.015,0.025,26
0.19,0.015,0.005,26
0.2,0.015,0.005,17
0.185,0,0.01,17
0.005,0.02,0.005,17
0.105,0.01,0.02,26
0.09,0.005,0.01,26
0.145,0.015,0.01,26
0.18,0.015,0.03,17
0.11,0.01,0.025,26
0.01,0.02,0.005,17
0.155,0,0.015,17
0.015,0.02,0.005,17
0.06,0.02,0.005,17
0.07,0.02,0.005,17
0.19,0.02,0.005,17
0.08,0.02,0.005,17
0.035,0,0.025,17
0.085,0.02,0.005,17
0.09,0.02,0.005,17
0.095,0.02,0.005,17
0.155,0,0.03,11
0.1,0.02,0.005,17
0.105,0.02,0.005,17
0.13,0.02,0.005,17
0.135,0.02,0.005,17
0,0,0.02,11
0.14,0.02,0.005,17
0.155,0.02,0.005,17
0.05,0,0.02,17
0.175,0.02,0.005,17
0.185,0.02,0.005,17
0.03,0.005,0.02,26
0.195,0.02,0.005,17
0.155,0.02,0.02,17
0,0,0.01,11
0.01,0,0.01,17
0.05,0,0.01,17
0.12,0,0.015,17
0.055,0,0.01,17
0.15,0.01,0.02,26
0.08,0.02,0.015,17
0.065,0,0.01,17
0.19,0.02,0.02,17
0.07,0,0.01,17
0.085,0.01,0.03,17
0.145,0,0.03,11
0.075,0.015,0.025,26
0.04,0,0.02,17
0.075,0,0.01,17
0.19,0.01,0.015,26
0.02,0.015,0.01,26
0.08,0,0.01,17
0.065,0.02,0.03,11
0.085,0,0.01,17
0.1,0.005,0.02,26
0.115,0,0.025,17
0.09,0,0.01,17
0.095,0,0.01,17
0.12,0.005,0.01,26
0.1,0,0.01,17
0.175,0.01,0.03,17
0.14,0,0.02,17
0.105,0,0.01,17
0.115,0,0.01,17
0.085,0.02,0.015,17
0,0.005,0.03,11
0.17,0.02,0.02,17
0.135,0,0.01,17
0.035,0.015,0.025,26
0.15,0,0.01,17
0.155,0,0.01,17
0.05,0.005,0.025,26
0.16,0,0.01,17
0.17,0,0.01,17
0.05,0.02,0.03,11
0.06,0.02,0.025,17
0.175,0,0.01,17
0.015,0.02,0.025,17
0.035,0,0.02,17
0.175,0,0.02,17
0.065,0.01,0.01,26
0.19,0,0.01,17
0.01,0.005,0.015,26
0.2,0,0.01,11
0.035,0.005,0.01,26
0,0.005,0.01,17
0.165,0.01,0.03,17
0.015,0.005,0.01,26
0.025,0.01,0.01,26
0.025,0.005,0.01,26
0.035,0.015,0.01,26
0.03,0.005,0.01,26
0.18,0.005,0.01,26
0.1,0.02,0.025,17
0.055,0.005,0.01,26
0.07,0.005,0.01,26
0.015,0.015,0.03,17
0.08,0.005,0.01,26
0.095,0,0.02,17
0.1,0.005,0.01,26
0.135,0.005,0.01,26
0.175,0.01,0.01,26
0.155,0.005,0.01,26
0.16,0.005,0.01,26
0,0.015,0.015,17
0.165,0.005,0.01,26
0.17,0.005,0.01,26
0.19,0.005,0.01,26
0.195,0.005,0.01,26
0.2,0.005,0.01,17
0,0.01,0.01,17
0.005,0.01,0.01,26
0.085,0.005,0.015,26
0.01,0.01,0.01,26
0.135,0.02,0.01,17
0.015,0.01,0.01,26
0.02,0.01,0.01,26
0.03,0.01,0.01,26
0.035,0.01,0.01,26
0.045,0.01,0.01,26
0.05,0.01,0.01,26
0.045,0.02,0.015,17
0.05,0.015,0.025,26
0.09,0.01,0.01,26
0.095,0,0.015,17
0.125,0.01,0.01,26
0.13,0.01,0.01,26
0,0.015,0.01,17
0.135,0.01,0.01,26
0.145,0.01,0.01,26
0.015,0.02,0.01,17
0.015,0.01,0.02,26
0.2,0.005,0.015,17
0.155,0.01,0.01,26
0.155,0.01,0.025,26
0.16,0.01,0.01,26
0.165,0.01,0.01,26
0,0,0.025,11
0.17,0.01,0.01,26
0.2,0,0.02,11
0.14,0.015,0.015,26
0.18,0.01,0.01,26
0.19,0.01,0.01,26
0.02,0.02,0.02,17
0.195,0.01,0.01,26
0.2,0.01,0.01,17
0.1,0.015,0.02,26
0.005,0.015,0.01,26
0.125,0.005,0.015,26
0.15,0.015,0.025,26
0.1,0.005,0.015,26
0.01,0.015,0.01,26
0.015,0.015,0.01,26
0.025,0.015,0.01,26
0.175,0.015,0.025,26
0.16,0.015,0.01,26
0.03,0.015,0.01,26
0.04,0.015,0.01,26
0.045,0.015,0.01,26
0.11,0.02,0.025,17
0.05,0.015,0.01,26
0.12,0,0.03,11
0.06,0.015,0.01,26
0.085,0.015,0.01,26
0.035,0.01,0.02,26
0.09,0.015,0.01,26
0.16,0.01,0.03,17
0.095,0.015,0.01,26
0.045,0.01,0.02,26
0.1,0.015,0.01,26
0.11,0.015,0.01,26
0.115,0.015,0.01,26
0.015,0.015,0.02,26
0.105,0.015,0.015,26
0.12,0.015,0.01,26
0.155,0.015,0.01,26
0.17,0.015,0.01,26
0.17,0.005,0.015,26
0.05,0.01,0.02,26
0.095,0.01,0.02,26
0.1,0.01,0.02,26
0.18,0.015,0.01,26
0.195,0.015,0.01,26
0.2,0.015,0.01,17
0.085,0.02,0.02,17
0,0.02,0.01,11
0.06,0.01,0.03,17
0.005,0.02,0.025,17
0.005,0.02,0.01,17
0.01,0.02,0.01,17
0.045,0.01,0.03,17
0.02,0.02,0.01,17
0.09,0.015,0.02,26
0.15,0,0.03,11
0.065,0.005,0.02,26
0.16,0.02,0.03,11
0.03,0.02,0.01,17
0.035,0.02,0.01,17
0.045,0.02,0.01,17
0.05,0.02,0.01,17
0.055,0.02,0.01,17
0.05,0.01,0.025,26
0.065,0.02,0.01,17
0.075,0.02,0.01,17
0.2,0.015,0.02,17
0.065,0.005,0.025,26
0.085,0.02,0.01,17
0.09,0.02,0.01,17
0.095,0.02,0.01,17
0.1,0.02,0.01,17
0.105,0.02,0.01,17
0.025,0.02,0.02,17
0.11,0.02,0.01,17
0.185,0,0.025,17
0.115,0.02,0.01,17
0.105,0,0.03,11
0.06,0,0.02,17
0.12,0.02,0.01,17
0.125,0.02,0.01,17
0.035,0.015,0.02,26
0.165,0.01,0.02,26
0.065,0.005,0.015,26
0.13,0.02,0.01,17
0.14,0.02,0.01,17
0.145,0.02,0.01,17
0.155,0,0.02,17
0.15,0.02,0.01,17
0.16,0.02,0.01,17
0.17,0.02,0.01,17
0.175,0.02,0.01,17
0.01,0.02,0.025,17
0.18,0.02,0.01,17
0.185,0.02,0.01,17
0.11,0.02,0.02,17
0.19,0.02,0.01,17
0.195,0.02,0.01,17
0.2,0.01,0.015,17
0,0,0.015,11
0.005,0,0.015,17
0.03,0.01,0.015,26
0.015,0,0.015,17
0.17,0.015,0.02,26
0.035,0.01,0.03,17
0.02,0,0.015,17
0.18,0.005,0.025,26
0.025,0,0.015,17
0.03,0,0.015,17
0.125,0.02,0.02,17
0.045,0,0.015,17
0.055,0,0.015,17
0.065,0,0.015,17
0.07,0,0.015,17
0.155,0.015,0.03,17
0.08,0,0.015,17
0.105,0,0.015,17
0,0.005,0.015,17
0.115,0,0.015,17
0.005,0.005,0.02,26
0.13,0,0.015,17
0.14,0,0.015,17
0.08,0.005,0.025,26
0.145,0,0.015,17
0.15,0,0.015,17
0.145,0.015,0.025,26
0.16,0,0.015,17
0.165,0,0.015,17
0.17,0,0.015,17
0.03,0.005,0.015,26
0.065,0.015,0.025,26
0.175,0,0.015,17
0.035,0.005,0.03,17
0.18,0,0.015,17
0.185,0,0.015,17
0.195,0,0.015,17
0.185,0.01,0.015,26
0.02,0.005,0.015,26
0.05,0.005,0.015,26
0.075,0.005,0.015,26
0.105,0.005,0.015,26
0.12,0.005,0.015,26
0.13,0.005,0.015,26
0.135,0.005,0.015,26
0.14,0.005,0.015,26
0.145,0.005,0.015,26
0.01,0.015,0.02,26
0.15,0.005,0.015,26
0.07,0.015,0.02,26
0.16,0.005,0.015,26
0.175,0.005,0.015,26
0.18,0.005,0.015,26
0.185,0.01,0.02,26
0.19,0.005,0.015,26
0.01,0.02,0.015,17
0.195,0.005,0.015,26
0.01,0.01,0.015,26
0.015,0.01,0.015,26
0.045,0.02,0.03,11
0.02,0.01,0.015,26
0.025,0.01,0.015,26
0.125,0.02,0.025,17
0.035,0.01,0.015,26
0.04,0.01,0.015,26
0.045,0.01,0.015,26
0.055,0.01,0.015,26
0.075,0.01,0.015,26
0.08,0.01,0.015,26
0.085,0.01,0.015,26
0.095,0.01,0.015,26
0.095,0.005,0.025,26
0.105,0.01,0.015,26
0.12,0.01,0.015,26
0.125,0.01,0.015,26
0.13,0.01,0.015,26
0.135,0.015,0.025,26
0.135,0.01,0.015,26
0.14,0.01,0.015,26
0.08,0.005,0.03,17
0.145,0.01,0.015,26
0.085,0.015,0.015,26
0.15,0.01,0.015,26
0.15,0.02,0.02,17
0.155,0.01,0.015,26
0.16,0.01,0.015,26
0,0.01,0.03,11
0.165,0.01,0.015,26
0.175,0.01,0.015,26
0.01,0.015,0.015,26
0.015,0.015,0.015,26
0.02,0.015,0.015,26
0.135,0.015,0.02,26
0.14,0.01,0.02,26
0.005,0.01,0.02,26
0.16,0.015,0.02,26
0.025,0.015,0.015,26
0.035,0.015,0.015,26
0.045,0.015,0.015,26
0.095,0.015,0.02,26
0,0.015,0.02,17
0.065,0.015,0.015,26
0.07,0.015,0.015,26
0.02,0.015,0.02,26
0.075,0.015,0.015,26
0.09,0.015,0.015,26
0.115,0.015,0.02,26
0.005,0.015,0.02,26
0.095,0.015,0.015,26
0.025,0.005,0.03,17
0.19,0.005,0.02,26
0.1,0.015,0.015,26
0.115,0.015,0.015,26
0.12,0.015,0.025,26
0.12,0.015,0.015,26
0.125,0.015,0.015,26
0.135,0.015,0.015,26
0.045,0,0.02,17
0.18,0.005,0.02,26
0.145,0.015,0.015,26
0.025,0,0.02,17
0.175,0.015,0.015,26
0.105,0.005,0.03,17
0.095,0.005,0.02,26
0.18,0.015,0.015,26
0.04,0.02,0.02,17
0.115,0.01,0.03,17
0.185,0.015,0.015,26
0.19,0.015,0.015,26
0.025,0.01,0.025,26
0.2,0.015,0.015,17
0.005,0.02,0.015,17
0.015,0.02,0.015,17
0.02,0.02,0.015,17
0.19,0,0.025,17
0.03,0.02,0.015,17
0.115,0.02,0.015,17
0.035,0.02,0.015,17
0.04,0.02,0.015,17
0.125,0.015,0.025,26
0.05,0.02,0.015,17
0.055,0.02,0.015,17
0.06,0.02,0.015,17
0.065,0.02,0.015,17
0.09,0.02,0.015,17
0.125,0.02,0.015,17
0.13,0.02,0.025,17
0.135,0.02,0.015,17
0.15,0.02,0.015,17
0.155,0.02,0.015,17
0.16,0.02,0.015,17
0.165,0.02,0.015,17
0.17,0.02,0.015,17
0.195,0.01,0.03,17
0.175,0.02,0.015,17
0.02,0.015,0.025,26
0.18,0.02,0.015,17
0.155,0.02,0.03,11
0.195,0.005,0.025,26
0.19,0.02,0.015,17
0.195,0.02,0.015,17
0.03,0,0.02,17
0.2,0.02,0.015,11
0.005,0,0.02,17
0.15,0.01,0.025,26
0.02,0,0.025,17
0.07,0,0.02,17
0.075,0,0.02,17
0.16,0.005,0.02,26
0.08,0,0.02,17
0.09,0,0.02,17
0.1,0,0.02,17
0.035,0.02,0.02,17
0.125,0,0.02,17
0.145,0,0.02,17
0.15,0,0.02,17
0.105,0.005,0.025,26
0.16,0,0.02,17
0.105,0.02,0.02,17
0.065,0,0.03,11
0.17,0,0.02,17
0.195,0,0.02,17
0,0.005,0.02,17
0.01,0.005,0.02,26
0.13,0.015,0.02,26
0.02,0.005,0.02,26
0.185,0.02,0.03,11
0.025,0.005,0.02,26
0.125,0.005,0.02,26
0.035,0.005,0.02,26
0.04,0.005,0.02,26
0.05,0.005,0.02,26
0.055,0.005,0.02,26
0.06,0.005,0.02,26
0.07,0.005,0.02,26
0.08,0.005,0.02,26
0.095,0.015,0.03,17
0.105,0.005,0.02,26
0.12,0.005,0.02,26
0.13,0.005,0.02,26
0.135,0.005,0.02,26
0.14,0.005,0.02,26
0.1,0.015,0.025,26
0.145,0.005,0.02,26
0.175,0.005,0.02,26
0.185,0.005,0.02,26
0.115,0.005,0.03,17
0.2,0.005,0.02,17
0.01,0.01,0.02,26
0.075,0.015,0.02,26
0.02,0.01,0.02,26
0.025,0.01,0.02,26
0.03,0.01,0.02,26
0.105,0.015,0.02,26
0.04,0.01,0.02,26
0.115,0.01,0.02,26
0.06,0.01,0.02,26
0.065,0.01,0.02,26
0.07,0.01,0.02,26
0.085,0.01,0.02,26
0.09,0.01,0.02,26
0.13,0.01,0.02,26
0.135,0.01,0.02,26
0.145,0.01,0.02,26
0.155,0.01,0.02,26
0.16,0.01,0.02,26
0.17,0.01,0.02,26
0.175,0.01,0.02,26
0.18,0.01,0.02,26
0.19,0.01,0.02,26
0.195,0.01,0.02,26
0.18,0.015,0.02,26
0.03,0.015,0.02,26
0.045,0.015,0.02,26
0.05,0.015,0.02,26
0.08,0.015,0.02,26
0.08,0.02,0.02,17
0.11,0.015,0.02,26
0.15,0.015,0.02,26
0.15,0.02,0.03,11
0.16,0.015,0.03,17
0.155,0.015,0.02,26
0.165,0.015,0.02,26
0.175,0.015,0.02,26
0.195,0.015,0.03,17
0.185,0.015,0.02,26
0.195,0.015,0.02,26
0,0.02,0.02,11
0.01,0.02,0.02,17
0.03,0.02,0.02,17
0.005,0.01,0.025,26
0.05,0.02,0.02,17
0.055,0.02,0.02,17
0.195,0,0.025,17
0.06,0.02,0.02,17
0.2,0.02,0.03,7
0.075,0.02,0.02,17
0.115,0.02,0.02,17
0.12,0.02,0.02,17
0.135,0.02,0.02,17
0.14,0.02,0.02,17
0.18,0.02,0.02,17
0.16,0.02,0.02,17
0.175,0.02,0.02,17
0.195,0.02,0.02,17
0.005,0,0.025,17
0.01,0,0.025,17
0.015,0,0.025,17
0.025,0,0.025,17
0.13,0.02,0.03,11
0.03,0,0.025,17
0.05,0,0.025,17
0.055,0,0.025,17
0.13,0.015,0.025,26
0.06,0,0.025,17
0.065,0,0.025,17
0.01,0.01,0.03,17
0.075,0,0.025,17
0.085,0,0.025,17
0.09,0,0.025,17
0.095,0,0.025,17
0.105,0,0.025,17
0.11,0,0.025,17
0.125,0,0.025,17
0.14,0,0.025,17
0.15,0,0.025,17
0.155,0,0.025,17
0.165,0,0.025,17
0.17,0,0.025,17
0.175,0.005,0.03,17
0.2,0,0.025,11
0,0.005,0.025,17
0.01,0.005,0.03,17
0.01,0.005,0.025,26
0.015,0.005,0.025,26
0.02,0.005,0.025,26
0.03,0.005,0.025,26
0.035,0.005,0.025,26
0.04,0.005,0.025,26
0.045,0.005,0.025,26
0.07,0.005,0.025,26
0.075,0.005,0.025,26
0.085,0.005,0.025,26
0.11,0.005,0.025,26
0.12,0.005,0.025,26
0.125,0.005,0.025,26
0.2,0.005,0.03,11
0.13,0.005,0.025,26
0.135,0.005,0.025,26
0.055,0.02,0.025,17
0.14,0.005,0.025,26
0.145,0.005,0.025,26
0.15,0.005,0.025,26
0.16,0.005,0.025,26
0.17,0.005,0.025,26
0.175,0.005,0.025,26
0.185,0.005,0.025,26
0.19,0.005,0.025,26
0,0.01,0.025,17
0.01,0.01,0.025,26
0.13,0.01,0.025,26
0.015,0.01,0.025,26
0.02,0.01,0.025,26
0.03,0.01,0.025,26
0.04,0.01,0.025,26
0.045,0.01,0.025,26
0,0,0.03,7
0.055,0.01,0.025,26
0.07,0.01,0.025,26
0.2,0.01,0.03,11
0.075,0.01,0.025,26
0.09,0.01,0.025,26
0.1,0.01,0.025,26
0.08,0.015,0.03,17
0.105,0.01,0.025,26
0.115,0.01,0.025,26
0.12,0.01,0.025,26
0.125,0.01,0.025,26
0.135,0.01,0.025,26
0.14,0.01,0.025,26
0.145,0.01,0.025,26
0.195,0.02,0.03,11
0.12,0.005,0.03,17
0.16,0.01,0.025,26
0.175,0.01,0.025,26
0.18,0.01,0.025,26
0.185,0.01,0.025,26
0.19,0.01,0.025,26
0.195,0.01,0.025,26
0.2,0.01,0.025,17
0,0.015,0.025,17
0.005,0.015,0.025,26
0.01,0.015,0.025,26
0.025,0.015,0.025,26
0.03,0.015,0.025,26
0.02,0.02,0.025,17
0.04,0.015,0.025,26
0.055,0.015,0.025,26
0.06,0.015,0.025,26
0.07,0.015,0.025,26
0.08,0.015,0.025,26
0.085,0.015,0.025,26
0.09,0.015,0.025,26
0.105,0.015,0.025,26
0.11,0.015,0.025,26
0.115,0.015,0.025,26
0.155,0.015,0.025,26
0.17,0.015,0.025,26
0.185,0.015,0.025,26
0.195,0.015,0.025,26
0,0.02,0.025,11
0.03,0.02,0.025,17
0.08,0,0.03,11
0.04,0.02,0.025,17
0.045,0.02,0.025,17
0.065,0.02,0.025,17
0.075,0.02,0.025,17
0.08,0.02,0.025,17
0.095,0.02,0.025,17
0.015,0,0.03,11
0.14,0.02,0.025,17
0.145,0.02,0.025,17
0.15,0.02,0.025,17
0.16,0.02,0.025,17
0.165,0.02,0.025,17
0.175,0.02,0.025,17
0.185,0.02,0.025,17
0.19,0.02,0.025,17
0.2,0.02,0.025,11
0.005,0,0.03,11
0.01,0,0.03,11
0.02,0,0.03,11
0.03,0,0.03,11
0.04,0,0.03,11
0.045,0,0.03,11
0.05,0,0.03,11
0.055,0,0.03,11
0.095,0,0.03,11
0.11,0,0.03,11
0.125,0,0.03,11
0.13,0,0.03,11
0.135,0,0.03,11
0.14,0,0.03,11
0.16,0,0.03,11
0.165,0,0.03,11
0.17,0,0.03,11
0.175,0,0.03,11
0.19,0,0.03,11
0.195,0,0.03,11
0.2,0,0.03,7
0.005,0.005,0.03,17
0.015,0.005,0.03,17
0.15,0.015,0.03,17
0.155,0.005,0.03,17
0.02,0.005,0.03,17
0.04,0.005,0.03,17
0.045,0.005,0.03,17
0.06,0.005,0.03,17
0.065,0.01,0.03,17
0.07,0.005,0.03,17
0.075,0.005,0.03,17
0.02,0.01,0.03,17
0.085,0.005,0.03,17
0.09,0.005,0.03,17
0.095,0.005,0.03,17
0.025,0.02,0.03,11
0.1,0.005,0.03,17
0.125,0.005,0.03,17
0.13,0.005,0.03,17
0.135,0.005,0.03,17
0.17,0.015,0.03,17
0.14,0.005,0.03,17
0.145,0.005,0.03,17
0.15,0.005,0.03,17
0.17,0.005,0.03,17
0.18,0.005,0.03,17
0.185,0.005,0.03,17
0.005,0.01,0.03,17
0.015,0.01,0.03,17
0.03,0.01,0.03,17
0.055,0.01,0.03,17
0.135,0.01,0.03,17
0.07,0.01,0.03,17
0.075,0.01,0.03,17
0.08,0.01,0.03,17
0.09,0.01,0.03,17
0.095,0.01,0.03,17
0.1,0.01,0.03,17
0.105,0.01,0.03,17
0.11,0.01,0.03,17
0.12,0.01,0.03,17
0.125,0.01,0.03,17
0.14,0.01,0.03,17
0.145,0.01,0.03,17
0.155,0.01,0.03,17
0.17,0.01,0.03,17
0.18,0.01,0.03,17
0.185,0.01,0.03,17
0.19,0.01,0.03,17
0.02,0.015,0.03,17
0.03,0.015,0.03,17
0.045,0.015,0.03,17
0.05,0.015,0.03,17
0.06,0.015,0.03,17
0.065,0.015,0.03,17
0.075,0.015,0.03,17
0.09,0.015,0.03,17
0.1,0.015,0.03,17
0.11,0.015,0.03,17
0.12,0.015,0.03,17
0.125,0.015,0.03,17
0.135,0.015,0.03,17
0.14,0.015,0.03,17
0.145,0.015,0.03,17
0.165,0.015,0.03,17
0.175,0.015,0.03,17
0.185,0.015,0.03,17
0.2,0.015,0.03,11
0,0.02,0.03,7
0.005,0.02,0.03,11
0.015,0.02,0.03,11
0.02,0.02,0.03,11
0.03,0.02,0.03,11
0.04,0.02,0.03,11
0.075,0.02,0.03,11
0.085,0.02,0.03,11
0.09,0.02,0.03,11
0.095,0.02,0.03,11
0.105,0.02,0.03,11
0.115,0.02,0.03,11
0.12,0.02,0.03,11
0.125,0.02,0.03,11
0.135,0.02,0.03,11
0.145,0.02,0.03,11
0.165,0.02,0.03,11
0.17,0.02,0.03,11
0.18,0.02,0.03,11
