x,y,z,spring_count
0.0099899,-1e-07,-1e-07,11
0.0998999,0.0199799,0.0049949,11
0.0349649,0.0199799,0.0199799,11
0.0049949,0.0149849,-1e-07,17
0.0099899,0.0049949,0.0199799,17
0.0549449,0.0099899,0.0199799,17
-1e-07,-1e-07,-1e-07,7
0.0049949,0.0149849,0.0049949,26
0.0099899,0.0099899,0.0099899,26
0.0949049,0.0149849,0.0099899,26
0.0349649,-1e-07,-1e-07,11
0.0349649,0.0099899,-1e-07,17
0.0049949,-1e-07,-1e-07,11
0.0249749,0.0099899,-1e-07,17
0.0399599,0.0199799,0.0049949,17
0.0549449,-1e-07,-1e-07,11
0.0149849,-1e-07,-1e-07,11
0.0549449,0.0049949,-1e-07,17
0.0199799,0.0099899,0.0149849,26
0.0299699,-1e-07,0.0199799,11
0.0399599,-1e-07,-1e-07,11
0.0199799,-1e-07,-1e-07,11
0.0299699,-1e-07,-1e-07,11
0.0249749,-1e-07,-1e-07,11
0.0449549,-1e-07,-1e-07,11
0.0599399,0.0099899,-1e-07,17
0.0499499,-1e-07,-1e-07,11
-1e-07,0.0099899,0.0099899,17
0.0549449,0.0149849,0.0199799,17
0.0149849,0.0099899,-1e-07,17
0.0599399,-1e-07,-1e-07,11
0.0099899,0.0199799,0.0199799,11
0.0049949,0.0199799,0.0099899,17
0.0649349,-1e-07,-1e-07,11
0.0699299,-1e-07,-1e-07,11
0.0998999,-1e-07,0.0199799,7
0.0749249,-1e-07,-1e-07,11
0.0799199,-1e-07,-1e-07,11
0.0849149,0.0099899,0.0149849,26
-1e-07,0.0049949,-1e-07,11
-1e-07,0.0199799,0.0099899,11
0.0849149,0.0049949,-1e-07,17
0.0849149,-1e-07,-1e-07,11
0.0199799,0.0149849,-1e-07,17
0.0249749,0.0149849,0.0099899,26
0.0699299,0.0049949,-1e-07,17
0.0899099,-1e-07,-1e-07,11
0.0499499,0.0049949,0.0199799,17
-1e-07,0.0149849,0.0049949,17
0.0949049,-1e-07,-1e-07,11
0.0349649,0.0149849,0.0199799,17
0.0749249,0.0049949,0.0049949,26
0.0799199,0.0049949,-1e-07,17
0.0349649,-1e-07,0.0049949,17
0.0349649,0.0199799,0.0099899,17
0.0099899,0.0049949,-1e-07,17
0.0949049,0.0149849,0.0049949,26
0.0998999,-1e-07,-1e-07,7
0.0949049,0.0099899,-1e-07,17
0.0199799,-1e-07,0.0149849,17
0.0998999,0.0099899,-1e-07,11
0.0749249,0.0049949,-1e-07,17
0.0299699,0.0049949,0.0199799,17
0.0849149,-1e-07,0.0099899,17
0.0299699,0.0099899,0.0099899,26
0.0049949,0.0049949,-1e-07,17
0.0149849,0.0049949,-1e-07,17
0.0199799,0.0049949,-1e-07,17
-1e-07,0.0099899,0.0149849,17
0.0998999,0.0099899,0.0149849,17
0.0249749,0.0049949,-1e-07,17
0.0299699,0.0049949,-1e-07,17
0.0349649,0.0049949,-1e-07,17
-1e-07,0.0149849,-1e-07,11
0.0399599,0.0049949,-1e-07,17
0.0649349,0.0049949,0.0149849,26
0.0399599,-1e-07,0.0099899,17
0.0249749,0.0049949,0.0199799,17
0.0449549,0.0049949,-1e-07,17
0.0449549,0.0149849,-1e-07,17
0.0899099,0.0099899,-1e-07,17
-1e-07,0.0099899,-1e-07,11
0.0499499,0.0049949,-1e-07,17
0.0449549,0.0149849,0.0099899,26
0.0599399,0.0049949,-1e-07,17
0.0699299,0.0099899,-1e-07,17
0.0649349,0.0049949,-1e-07,17
0.0899099,0.0049949,-1e-07,17
0.0749249,-1e-07,0.0199799,11
0.0949049,0.0049949,-1e-07,17
0.0998999,0.0049949,-1e-07,11
0.0949049,0.0049949,0.0049949,26
0.0349649,0.0049949,0.0099899,26
0.0149849,0.0099899,0.0149849,26
0.0049949,0.0099899,-1e-07,17
0.0049949,0.0099899,0.0049949,26
0.0749249,0.0099899,-1e-07,17
0.0299699,-1e-07,0.0049949,17
0.0099899,0.0099899,-1e-07,17
0.0199799,0.0149849,0.0049949,26
0.0199799,0.0099899,-1e-07,17
0.0899099,-1e-07,0.0199799,11
0.0299699,0.0099899,-1e-07,17
0.0399599,0.0099899,-1e-07,17
0.0699299,0.0049949,0.0099899,26
0.0449549,0.0099899,-1e-07,17
0.0949049,0.0199799,-1e-07,11
0.0249749,0.0199799,0.0149849,17
0.0899099,0.0199799,0.0099899,17
0.0649349,0.0099899,-1e-07,17
0.0199799,0.0049949,0.0049949,26
0.0998999,0.0149849,0.0149849,17
0.0499499,0.0099899,-1e-07,17
0.0749249,0.0149849,0.0199799,17
0.0549449,0.0099899,-1e-07,17
0.0099899,0.0199799,0.0099899,17
0.0799199,0.0099899,-1e-07,17
0.0849149,0.0099899,-1e-07,17
0.0099899,0.0149849,-1e-07,17
0.0998999,0.0199799,0.0099899,11
0.0899099,0.0049949,0.0199799,17
0.0149849,0.0149849,-1e-07,17
0.0799199,-1e-07,0.0099899,17
0.0249749,0.0149849,-1e-07,17
0.0299699,0.0149849,-1e-07,17
0.0349649,0.0149849,-1e-07,17
0.0799199,-1e-07,0.0049949,17
0.0399599,0.0149849,-1e-07,17
0.0799199,-1e-07,0.0149849,17
0.0499499,0.0149849,-1e-07,17
0.0549449,0.0149849,-1e-07,17
0.0199799,0.0099899,0.0199799,17
0.0599399,0.0149849,-1e-07,17
0.0599399,0.0149849,0.0199799,17
0.0649349,0.0149849,-1e-07,17
0.0699299,0.0149849,-1e-07,17
0.0749249,0.0149849,-1e-07,17
0.0349649,-1e-07,0.0199799,11
0.0799199,0.0149849,-1e-07,17
0.0749249,0.0149849,0.0149849,26
0.0449549,0.0099899,0.0049949,26
0.0849149,0.0149849,-1e-07,17
0.0899099,0.0149849,-1e-07,17
0.0199799,-1e-07,0.0049949,17
0.0949049,0.0149849,-1e-07,17
0.0998999,0.0149849,-1e-07,11
0.0899099,0.0099899,0.0049949,26
-1e-07,0.0199799,-1e-07,7
0.0649349,0.0099899,0.0049949,26
0.0599399,0.0199799,0.0149849,17
0.0749249,0.0099899,0.0199799,17
0.0049949,0.0199799,-1e-07,11
0.0099899,0.0199799,-1e-07,11
0.0399599,0.0049949,0.0049949,26
0.0149849,0.0199799,-1e-07,11
0.0699299,0.0049949,0.0049949,26
0.0998999,0.0149849,0.0099899,17
0.0049949,0.0049949,0.0049949,26
0.0599399,0.0199799,0.0099899,17
0.0199799,0.0199799,-1e-07,11
0.0249749,0.0199799,-1e-07,11
0.0249749,0.0049949,0.0099899,26
0.0299699,0.0199799,-1e-07,11
0.0599399,0.0099899,0.0049949,26
0.0349649,0.0199799,-1e-07,11
0.0399599,0.0199799,-1e-07,11
0.0449549,0.0199799,-1e-07,11
0.0499499,0.0049949,0.0149849,26
-1e-07,0.0199799,0.0049949,11
0.0499499,0.0199799,-1e-07,11
0.0549449,0.0199799,-1e-07,11
0.0599399,0.0199799,-1e-07,11
0.0649349,0.0199799,-1e-07,11
0.0699299,0.0199799,-1e-07,11
0.0749249,0.0199799,-1e-07,11
0.0799199,0.0199799,-1e-07,11
0.0849149,0.0199799,-1e-07,11
0.0649349,0.0199799,0.0149849,17
0.0299699,0.0199799,0.0199799,11
0.0998999,-1e-07,0.0049949,11
0.0299699,0.0099899,0.0149849,26
0.0749249,0.0199799,0.0149849,17
0.0899099,0.0199799,-1e-07,11
0.0899099,0.0099899,0.0199799,17
0.0998999,0.0199799,-1e-07,7
0.0699299,-1e-07,0.0099899,17
0.0449549,-1e-07,0.0099899,17
-1e-07,-1e-07,0.0049949,11
0.0049949,-1e-07,0.0049949,17
0.0099899,-1e-07,0.0049949,17
0.0149849,-1e-07,0.0049949,17
0.0149849,0.0049949,0.0149849,26
0.0249749,-1e-07,0.0049949,17
0.0399599,-1e-07,0.0049949,17
0.0449549,-1e-07,0.0049949,17
0.0499499,0.0099899,0.0049949,26
0.0499499,-1e-07,0.0049949,17
0.0549449,-1e-07,0.0049949,17
0.0599399,-1e-07,0.0049949,17
0.0049949,0.0149849,0.0099899,26
0.0749249,0.0099899,0.0099899,26
0.0649349,-1e-07,0.0049949,17
0.0699299,-1e-07,0.0049949,17
0.0749249,-1e-07,0.0049949,17
0.0649349,0.0149849,0.0099899,26
0.0049949,0.0049949,0.0199799,17
0.0199799,-1e-07,0.0199799,11
0.0849149,-1e-07,0.0049949,17
0.0899099,-1e-07,0.0049949,17
0.0149849,0.0199799,0.0049949,17
0.0749249,0.0099899,0.0149849,26
0.0949049,-1e-07,0.0049949,17
0.0699299,0.0149849,0.0049949,26
0.0849149,0.0099899,0.0099899,26
-1e-07,0.0049949,0.0049949,17
0.0099899,0.0049949,0.0049949,26
0.0149849,0.0049949,0.0049949,26
0.0249749,0.0049949,0.0049949,26
0.0799199,0.0199799,0.0049949,17
0.0299699,0.0049949,0.0049949,26
0.0349649,0.0049949,0.0049949,26
0.0849149,0.0049949,0.0199799,17
0.0449549,0.0049949,0.0049949,26
0.0499499,0.0049949,0.0049949,26
0.0549449,0.0149849,0.0049949,26
0.0549449,0.0049949,0.0049949,26
0.0599399,0.0049949,0.0049949,26
0.0649349,0.0049949,0.0049949,26
0.0649349,-1e-07,0.0199799,11
0.0799199,0.0049949,0.0049949,26
0.0199799,-1e-07,0.0099899,17
0.0849149,0.0049949,0.0049949,26
0.0899099,0.0049949,0.0049949,26
0.0899099,0.0149849,0.0099899,26
0.0998999,0.0049949,0.0049949,17
-1e-07,0.0099899,0.0049949,17
0.0049949,-1e-07,0.0199799,11
0.0299699,0.0149849,0.0149849,26
0.0099899,0.0099899,0.0049949,26
0.0149849,0.0099899,0.0049949,26
0.0199799,0.0099899,0.0049949,26
0.0499499,0.0099899,0.0099899,26
0.0998999,0.0099899,0.0199799,11
0.0249749,0.0099899,0.0049949,26
0.0299699,0.0099899,0.0049949,26
0.0299699,0.0149849,0.0049949,26
0.0349649,0.0099899,0.0049949,26
0.0699299,0.0049949,0.0199799,17
0.0549449,0.0099899,0.0149849,26
0.0399599,0.0099899,0.0049949,26
0.0549449,0.0099899,0.0049949,26
0.0699299,0.0099899,0.0049949,26
0.0249749,0.0049949,0.0149849,26
0.0749249,0.0099899,0.0049949,26
0.0799199,0.0099899,0.0049949,26
0.0949049,0.0199799,0.0149849,17
0.0849149,0.0099899,0.0049949,26
0.0949049,0.0099899,0.0049949,26
0.0998999,0.0099899,0.0049949,17
0.0199799,0.0149849,0.0149849,26
0.0099899,0.0149849,0.0049949,26
0.0499499,0.0199799,0.0149849,17
0.0149849,0.0149849,0.0049949,26
0.0249749,0.0149849,0.0049949,26
0.0749249,0.0199799,0.0049949,17
0.0349649,0.0149849,0.0049949,26
0.0399599,0.0149849,0.0049949,26
0.0998999,0.0199799,0.0149849,11
0.0449549,0.0149849,0.0049949,26
0.0449549,-1e-07,0.0149849,17
0.0499499,0.0149849,0.0049949,26
0.0599399,0.0149849,0.0049949,26
0.0998999,0.0149849,0.0049949,17
0.0549449,-1e-07,0.0149849,17
0.0849149,0.0199799,0.0149849,17
0.0649349,0.0149849,0.0049949,26
0.0149849,0.0149849,0.0149849,26
0.0749249,0.0149849,0.0049949,26
0.0299699,0.0049949,0.0149849,26
0.0799199,0.0149849,0.0049949,26
0.0799199,0.0149849,0.0199799,17
0.0849149,0.0149849,0.0049949,26
0.0899099,0.0149849,0.0049949,26
0.0399599,0.0149849,0.0199799,17
0.0949049,0.0099899,0.0099899,26
0.0049949,0.0199799,0.0049949,17
0.0849149,0.0049949,0.0099899,26
0.0099899,0.0199799,0.0049949,17
0.0049949,0.0099899,0.0149849,26
0.0799199,-1e-07,0.0199799,11
0.0199799,0.0199799,0.0049949,17
0.0249749,0.0199799,0.0049949,17
0.0299699,0.0199799,0.0049949,17
0.0349649,0.0199799,0.0049949,17
0.0199799,0.0199799,0.0149849,17
0.0449549,0.0199799,0.0049949,17
0.0499499,0.0199799,0.0049949,17
0.0549449,0.0199799,0.0049949,17
0.0599399,0.0199799,0.0049949,17
0.0399599,0.0149849,0.0149849,26
0.0649349,0.0199799,0.0049949,17
0.0699299,0.0199799,0.0049949,17
0.0199799,0.0149849,0.0199799,17
0.0849149,0.0199799,0.0049949,17
0.0899099,0.0199799,0.0049949,17
0.0749249,-1e-07,0.0149849,17
0.0949049,0.0199799,0.0049949,17
0.0449549,0.0199799,0.0149849,17
-1e-07,-1e-07,0.0099899,11
0.0799199,0.0199799,0.0149849,17
0.0049949,-1e-07,0.0099899,17
0.0899099,0.0049949,0.0149849,26
0.0099899,-1e-07,0.0099899,17
0.0149849,-1e-07,0.0099899,17
0.0249749,-1e-07,0.0099899,17
0.0249749,-1e-07,0.0199799,11
0.0299699,-1e-07,0.0099899,17
0.0349649,-1e-07,0.0099899,17
0.0499499,-1e-07,0.0099899,17
0.0649349,0.0149849,0.0199799,17
0.0549449,-1e-07,0.0099899,17
0.0599399,-1e-07,0.0099899,17
0.0499499,0.0099899,0.0199799,17
0.0649349,-1e-07,0.0099899,17
0.0749249,-1e-07,0.0099899,17
0.0299699,0.0049949,0.0099899,26
0.0649349,0.0049949,0.0099899,26
0.0349649,0.0049949,0.0199799,17
0.0899099,-1e-07,0.0099899,17
0.0949049,-1e-07,0.0099899,17
0.0949049,0.0099899,0.0199799,17
0.0449549,0.0049949,0.0149849,26
0.0998999,-1e-07,0.0099899,11
-1e-07,0.0049949,0.0099899,17
0.0699299,0.0099899,0.0199799,17
0.0049949,0.0049949,0.0099899,26
0.0099899,0.0049949,0.0099899,26
0.0349649,0.0099899,0.0149849,26
0.0149849,0.0049949,0.0099899,26
0.0399599,0.0199799,0.0199799,11
0.0199799,0.0049949,0.0099899,26
-1e-07,0.0149849,0.0199799,11
0.0399599,0.0049949,0.0099899,26
0.0449549,0.0049949,0.0099899,26
0.0499499,0.0049949,0.0099899,26
0.0549449,0.0049949,0.0099899,26
0.0599399,0.0049949,0.0099899,26
0.0049949,0.0149849,0.0199799,17
0.0749249,0.0049949,0.0099899,26
0.0799199,0.0049949,0.0099899,26
0.0899099,0.0049949,0.0099899,26
0.0249749,0.0149849,0.0149849,26
0.0949049,0.0049949,0.0099899,26
0.0998999,0.0049949,0.0099899,17
0.0299699,0.0099899,0.0199799,17
0.0049949,0.0099899,0.0099899,26
0.0699299,-1e-07,0.0199799,11
0.0849149,0.0149849,0.0199799,17
0.0149849,0.0099899,0.0099899,26
0.0549449,0.0199799,0.0099899,17
-1e-07,0.0099899,0.0199799,11
0.0199799,0.0099899,0.0099899,26
0.0249749,0.0099899,0.0099899,26
0.0349649,0.0099899,0.0099899,26
0.0399599,0.0099899,0.0099899,26
0.0449549,0.0099899,0.0099899,26
0.0249749,0.0149849,0.0199799,17
0.0549449,0.0099899,0.0099899,26
0.0599399,0.0099899,0.0099899,26
0.0249749,-1e-07,0.0149849,17
0.0649349,0.0099899,0.0099899,26
0.0199799,0.0199799,0.0199799,11
0.0699299,0.0099899,0.0099899,26
0.0799199,0.0099899,0.0099899,26
0.0299699,-1e-07,0.0149849,17
0.0899099,0.0099899,0.0099899,26
0.0998999,0.0099899,0.0099899,17
0.0499499,0.0149849,0.0199799,17
-1e-07,0.0149849,0.0099899,17
0.0099899,0.0149849,0.0099899,26
0.0149849,0.0149849,0.0099899,26
0.0099899,0.0149849,0.0199799,17
0.0199799,0.0149849,0.0099899,26
0.0299699,0.0149849,0.0099899,26
0.0349649,0.0149849,0.0099899,26
0.0399599,0.0149849,0.0099899,26
0.0599399,-1e-07,0.0149849,17
0.0499499,0.0149849,0.0099899,26
0.0549449,0.0149849,0.0099899,26
0.0599399,0.0149849,0.0099899,26
0.0949049,0.0049949,0.0199799,17
0.0699299,0.0149849,0.0099899,26
0.0749249,0.0149849,0.0099899,26
0.0799199,0.0149849,0.0099899,26
0.0849149,0.0149849,0.0099899,26
0.0149849,0.0199799,0.0099899,17
0.0199799,0.0199799,0.0099899,17
0.0899099,0.0149849,0.0199799,17
0.0249749,0.0199799,0.0099899,17
0.0299699,0.0199799,0.0099899,17
0.0349649,0.0099899,0.0199799,17
0.0399599,0.0199799,0.0099899,17
0.0449549,0.0199799,0.0099899,17
0.0499499,0.0199799,0.0099899,17
0.0649349,0.0199799,0.0099899,17
0.0699299,0.0199799,0.0099899,17
0.0399599,0.0199799,0.0149849,17
0.0749249,0.0199799,0.0099899,17
0.0799199,0.0199799,0.0099899,17
0.0849149,0.0199799,0.0099899,17
0.0449549,0.0199799,0.0199799,11
0.0949049,0.0199799,0.0099899,17
-1e-07,-1e-07,0.0149849,11
0.0499499,-1e-07,0.0199799,11
0.0998999,0.0149849,0.0199799,11
0.0049949,-1e-07,0.0149849,17
0.0899099,0.0199799,0.0149849,17
0.0599399,0.0049949,0.0149849,26
0.0099899,-1e-07,0.0149849,17
0.0149849,-1e-07,0.0149849,17
0.0349649,-1e-07,0.0149849,17
0.0399599,-1e-07,0.0149849,17
0.0499499,-1e-07,0.0149849,17
0.0649349,-1e-07,0.0149849,17
0.0849149,-1e-07,0.0149849,17
0.0699299,-1e-07,0.0149849,17
0.0899099,-1e-07,0.0149849,17
0.0949049,-1e-07,0.0149849,17
0.0998999,-1e-07,0.0149849,11
-1e-07,0.0049949,0.0149849,17
0.0049949,0.0049949,0.0149849,26
0.0099899,0.0049949,0.0149849,26
0.0199799,0.0049949,0.0149849,26
0.0349649,0.0049949,0.0149849,26
0.0399599,0.0049949,0.0149849,26
0.0549449,0.0049949,0.0149849,26
0.0699299,0.0049949,0.0149849,26
0.0749249,0.0049949,0.0149849,26
0.0799199,0.0049949,0.0149849,26
0.0849149,0.0049949,0.0149849,26
0.0949049,0.0049949,0.0149849,26
0.0399599,0.0049949,0.0199799,17
0.0998999,0.0049949,0.0149849,17
0.0099899,0.0099899,0.0149849,26
0.0249749,0.0099899,0.0149849,26
0.0399599,0.0099899,0.0149849,26
0.0599399,0.0099899,0.0149849,26
0.0449549,0.0099899,0.0149849,26
0.0499499,0.0099899,0.0149849,26
0.0649349,0.0099899,0.0149849,26
0.0699299,0.0099899,0.0149849,26
0.0449549,0.0099899,0.0199799,17
0.0799199,0.0099899,0.0149849,26
0.0299699,0.0149849,0.0199799,17
0.0899099,0.0099899,0.0149849,26
0.0949049,0.0099899,0.0149849,26
0.0799199,0.0199799,0.0199799,11
0.0149849,0.0099899,0.0199799,17
-1e-07,0.0149849,0.0149849,17
0.0049949,0.0149849,0.0149849,26
0.0099899,0.0149849,0.0149849,26
0.0349649,0.0149849,0.0149849,26
0.0449549,0.0149849,0.0149849,26
0.0499499,0.0149849,0.0149849,26
0.0549449,0.0149849,0.0149849,26
0.0599399,0.0149849,0.0149849,26
0.0649349,0.0149849,0.0149849,26
0.0699299,0.0149849,0.0149849,26
0.0799199,0.0149849,0.0149849,26
0.0849149,0.0149849,0.0149849,26
0.0899099,0.0149849,0.0149849,26
0.0949049,0.0149849,0.0149849,26
-1e-07,0.0199799,0.0149849,11
0.0049949,0.0199799,0.0149849,17
0.0099899,0.0199799,0.0149849,17
0.0149849,0.0199799,0.0149849,17
0.0299699,0.0199799,0.0149849,17
0.0349649,0.0199799,0.0149849,17
0.0449549,0.0049949,0.0199799,17
0.0549449,0.0199799,0.0149849,17
0.0699299,0.0199799,0.0149849,17
-1e-07,-1e-07,0.0199799,7
0.0099899,-1e-07,0.0199799,11
0.0149849,-1e-07,0.0199799,11
0.0399599,-1e-07,0.0199799,11
0.0449549,-1e-07,0.0199799,11
0.0549449,-1e-07,0.0199799,11
0.0599399,-1e-07,0.0199799,11
0.0849149,-1e-07,0.0199799,11
0.0949049,-1e-07,0.0199799,11
-1e-07,0.0049949,0.0199799,11
0.0998999,0.0049949,0.0199799,11
0.0149849,0.0049949,0.0199799,17
0.0199799,0.0049949,0.0199799,17
0.0549449,0.0049949,0.0199799,17
0.0599399,0.0049949,0.0199799,17
0.0649349,0.0049949,0.0199799,17
0.0749249,0.0049949,0.0199799,17
0.0799199,0.0049949,0.0199799,17
0.0049949,0.0099899,0.0199799,17
0.0099899,0.0099899,0.0199799,17
0.0249749,0.0099899,0.0199799,17
0.0399599,0.0099899,0.0199799,17
0.0599399,0.0099899,0.0199799,17
0.0649349,0.0099899,0.0199799,17
0.0799199,0.0099899,0.0199799,17
0.0849149,0.0099899,0.0199799,17
0.0149849,0.0149849,0.0199799,17
0.0449549,0.0149849,0.0199799,17
0.0699299,0.0149849,0.0199799,17
0.0949049,0.0149849,0.0199799,17
-1e-07,0.0199799,0.0199799,7
0.0049949,0.0199799,0.0199799,11
0.0149849,0.0199799,0.0199799,11
0.0249749,0.0199799,0.0199799,11
0.0499499,0.0199799,0.0199799,11
0.0549449,0.0199799,0.0199799,11
0.0599399,0.0199799,0.0199799,11
0.0649349,0.0199799,0.0199799,11
0.0699299,0.0199799,0.0199799,11
0.0749249,0.0199799,0.0199799,11
0.0849149,0.0199799,0.0199799,11
0.0899099,0.0199799,0.0199799,11
0.0949049,0.0199799,0.0199799,11
0.0998999,0.0199799,0.0199799,7
