Beam Test Scenario Enabled
XML Loading result: No error
Validating XML...
XML validated successfully...
volume
 id: cantilever
 primitive: cube
 scale: 0.30000000000000004, 0.02, 0.02
 translate: 0, 0, 0
 rot: 0, 0, 0
 color: 0,0,0
 
volume
 id: anchor
 primitive: cube
 scale: 0.005, 0.021, 0.021
 translate: -0.0025, -0.0005, -0.0005
 color: 255, 0, 0
 
volume
 id: loadpoint
 primitive: cube
 scale: 0.005, 0.021, 0.021
 translate: 0.29750000000000004, -0.0005, -0.0005
 color: 0, 255, 0
 
volume
 id: trace
 primitive: cube
 scale: 0.005, 0.021, 0.021
 translate: 0.29750000000000004, -0.0005, -0.0005
 color: 0, 255, 0
 
loadcase
 id: L1
  fix
   volume: anchor
  constant
   volume: loadpoint
   magnitude: 0.0, 1.0, 0.0
  accel
   volume: cantilever
   magnitude: 0, 0, 0
 
material
 id: steel-lattice
  elasticity
   modulus: 113.8
   unit: GPa
  lattice
   cell: cubic
   random: true
   vertexmass: 0.00034859
   size: 0.005, 0.005, 0.005
   bardiam: 0.001
   volume: cantilever
   offset: 0, 0, 0
 
rules
 vol: cantilever
 gpu_acceleration: true
  damping
   amount: 0.01
  material
   matid: steel-lattice
  output
   destination: window
   size: 1920, 1080
  load
   load-id: L1
  telemetry
   output_dir: scenarios\random_gpu_rk4\output\varying_x\RK4\0.3_1
  integration
   method: RK4
   time_step: 1e-06
  stop
   simulation_time: 500
   wall_clock_time: 0
   time_unit: ms
 
is_random 1
1
cantilever xMin: 0
cantilever xMax: 0.3
cantilever yMin: 0
cantilever yMax: 0.02
cantilever zMin: 0
cantilever zMax: 0.02
1
anchor xMin: -0.0025
anchor xMax: 0.0025
anchor yMin: -0.0005
anchor yMax: 0.0205
anchor zMin: -0.0005
anchor zMax: 0.0205
1
loadpoint xMin: 0.2975
loadpoint xMax: 0.3025
loadpoint yMin: -0.0005
loadpoint yMax: 0.0205
loadpoint zMin: -0.0005
loadpoint zMax: 0.0205
1
trace xMin: 0.2975
trace xMax: 0.3025
trace yMin: -0.0005
trace yMax: 0.0205
trace zMin: -0.0005
trace zMax: 0.0205
Lattice is random: 1
Building random lattice
Output dir: scenarios\random_gpu_rk4\output\varying_x\RK4\0.3_1
All masses were unique
Calculated number of masses: 1525
Max Spring Connections: 20
Min Spring Connections: 10
Average Spring Connections: 19.9239
Max Spring Length: 0.0160701
Min Spring Length: 0.00314102
Max Spring Stiffness: 2.84552e+07
Min Spring Stiffness: 5.56179e+06
Average Spring Stiffness: 1.39444e+07
1525 masses
initial centroid0.0117049
Cuda Device ID: 0
GPU Device was set to: 0
CUDA device name: GeForce GTX 1070
CUDA device major: 6
CUDA device minor: 1
Using RK4 integration method
GPU Acceleration Successfully Enabled
Setting masses_to_trace
1204
1207
1209
1213
1214
1215
1217
1218
1219
1220
GPUSpringMass: Releasing Forces
Sum forces y: 0
Release damping at: 500ms
Release point position: 0.0117049
tr size: 500000position_traces_size 500001
Writing output
Elapsed Seconds: 271.424
Avg Time Per Step: 0.000271424
Masses per Second: 5.61851e+06
Springs per Second: 5.59714e+07
