
==============NVSMI LOG==============

Timestamp                           : Mon Feb 25 03:45:26 2019
Driver Version                      : 410.78
CUDA Version                        : 10.0

Attached GPUs                       : 3
GPU 00000000:67:00.0
    Product Name                    : GeForce GTX 1080 Ti
    Product Brand                   : GeForce
    Display Mode                    : Disabled
    Display Active                  : Disabled
    Persistence Mode                : Disabled
    Accounting Mode                 : Disabled
    Accounting Mode Buffer Size     : 4000
    Driver Model
        Current                     : N/A
        Pending                     : N/A
    Serial Number                   : N/A
    GPU UUID                        : GPU-c75c6714-cc58-76ef-3c1d-0b2eac8315dc
    Minor Number                    : 1
    VBIOS Version                   : 86.02.39.40.92
    MultiGPU Board                  : No
    Board ID                        : 0x6700
    GPU Part Number                 : N/A
    Inforom Version
        Image Version               : G001.0000.01.04
        OEM Object                  : 1.1
        ECC Object                  : N/A
        Power Management Object     : N/A
    GPU Operation Mode
        Current                     : N/A
        Pending                     : N/A
    GPU Virtualization Mode
        Virtualization mode         : None
    IBMNPU
        Relaxed Ordering Mode       : N/A
    PCI
        Bus                         : 0x67
        Device                      : 0x00
        Domain                      : 0x0000
        Device Id                   : 0x1B0610DE
        Bus Id                      : 00000000:67:00.0
        Sub System Id               : 0x66963842
        GPU Link Info
            PCIe Generation
                Max                 : 3
                Current             : 3
            Link Width
                Max                 : 16x
                Current             : 16x
        Bridge Chip
            Type                    : N/A
            Firmware                : N/A
        Replays since reset         : 0
        Tx Throughput               : 0 KB/s
        Rx Throughput               : 0 KB/s
    Fan Speed                       : 46 %
    Performance State               : P0
    Clocks Throttle Reasons
        Idle                        : Not Active
        Applications Clocks Setting : Not Active
        SW Power Cap                : Not Active
        HW Slowdown                 : Not Active
            HW Thermal Slowdown     : Not Active
            HW Power Brake Slowdown : Not Active
        Sync Boost                  : Not Active
        SW Thermal Slowdown         : Not Active
        Display Clock Setting       : Not Active
    FB Memory Usage
        Total                       : 11178 MiB
        Used                        : 2 MiB
        Free                        : 11176 MiB
    BAR1 Memory Usage
        Total                       : 256 MiB
        Used                        : 5 MiB
        Free                        : 251 MiB
    Compute Mode                    : Default
    Utilization
        Gpu                         : 0 %
        Memory                      : 0 %
        Encoder                     : 0 %
        Decoder                     : 0 %
    Encoder Stats
        Active Sessions             : 0
        Average FPS                 : 0
        Average Latency             : 0
    FBC Stats
        Active Sessions             : 0
        Average FPS                 : 0
        Average Latency             : 0
    Ecc Mode
        Current                     : N/A
        Pending                     : N/A
    ECC Errors
        Volatile
            Single Bit            
                Device Memory       : N/A
                Register File       : N/A
                L1 Cache            : N/A
                L2 Cache            : N/A
                Texture Memory      : N/A
                Texture Shared      : N/A
                CBU                 : N/A
                Total               : N/A
            Double Bit            
                Device Memory       : N/A
                Register File       : N/A
                L1 Cache            : N/A
                L2 Cache            : N/A
                Texture Memory      : N/A
                Texture Shared      : N/A
                CBU                 : N/A
                Total               : N/A
        Aggregate
            Single Bit            
                Device Memory       : N/A
                Register File       : N/A
                L1 Cache            : N/A
                L2 Cache            : N/A
                Texture Memory      : N/A
                Texture Shared      : N/A
                CBU                 : N/A
                Total               : N/A
            Double Bit            
                Device Memory       : N/A
                Register File       : N/A
                L1 Cache            : N/A
                L2 Cache            : N/A
                Texture Memory      : N/A
                Texture Shared      : N/A
                CBU                 : N/A
                Total               : N/A
    Retired Pages
        Single Bit ECC              : N/A
        Double Bit ECC              : N/A
        Pending                     : N/A
    Temperature
        GPU Current Temp            : 69 C
        GPU Shutdown Temp           : 96 C
        GPU Slowdown Temp           : 93 C
        GPU Max Operating Temp      : N/A
        Memory Current Temp         : N/A
        Memory Max Operating Temp   : N/A
    Power Readings
        Power Management            : Supported
        Power Draw                  : 83.89 W
        Power Limit                 : 280.00 W
        Default Power Limit         : 280.00 W
        Enforced Power Limit        : 280.00 W
        Min Power Limit             : 125.00 W
        Max Power Limit             : 330.00 W
    Clocks
        Graphics                    : 1936 MHz
        SM                          : 1936 MHz
        Memory                      : 5508 MHz
        Video                       : 1645 MHz
    Applications Clocks
        Graphics                    : N/A
        Memory                      : N/A
    Default Applications Clocks
        Graphics                    : N/A
        Memory                      : N/A
    Max Clocks
        Graphics                    : 1999 MHz
        SM                          : 1999 MHz
        Memory                      : 5505 MHz
        Video                       : 1620 MHz
    Max Customer Boost Clocks
        Graphics                    : N/A
    Clock Policy
        Auto Boost                  : N/A
        Auto Boost Default          : N/A
    Processes                       : None

