Hiding window!
XML Loading result: No error
Validating XML...
XML validated successfully...
volume
 id: cantilever
 primitive: cube
 scale: 0.2, 0.02, 0.03
 translate: 0, 0, 0
 rot: 0, 0, 0
 
volume
 id: anchor
 primitive: cube
 scale: 0.005, 0.021, 0.031
 translate: -0.0025, -0.0005, -0.0005
 
volume
 id: loadpoint
 primitive: cube
 scale: 0.005, 0.021, 0.031
 translate: 0.1975, -0.0005, -0.0005
 
volume
 id: trace
 primitive: cube
 scale: 0.005, 0.021, 0.031
 translate: 0.1975, -0.0005, -0.0005
 
loadcase
 id: L1
  fix
   volume: anchor
  constant
   volume: loadpoint
   magnitude: 0, -200, 0
  accel
   volume: cantilever
   magnitude: 0, 0, 0
 
material
 id: steel-lattice
  elasticity
   modulus: 113.8
   unit: GPa
  lattice
   cell: cubic
   vertexmass: 0.00034859
   size: 0.005, 0.005, 0.005
   bardiam: 0.001
   volume: cantilever
   offset: 0, 0, 0
 
rules
 vol: cantilever
  damping
   amount: 0.01
  material
   matid: steel-lattice
  output
   destination: window
   size: 1920, 1080
  load
   load-id: L1
  telemetry
   output_dir: output/varying_z_67ffbd38/euler/0.03_1/
  integration
   method: euler
  stop
   simulation_time: 300
   wall_clock_time: 0
   time_unit: ms
 
1
cantilever xMin: 0
cantilever xMax: 0.2
cantilever yMin: 0
cantilever yMax: 0.02
cantilever zMin: 0
cantilever zMax: 0.03
1
anchor xMin: -0.0025
anchor xMax: 0.0025
anchor yMin: -0.0005
anchor yMax: 0.0205
anchor zMin: -0.0005
anchor zMax: 0.0305
1
loadpoint xMin: 0.1975
loadpoint xMax: 0.2025
loadpoint yMin: -0.0005
loadpoint yMax: 0.0205
loadpoint zMin: -0.0005
loadpoint zMax: 0.0305
1
trace xMin: 0.1975
trace xMax: 0.2025
trace yMin: -0.0005
trace yMax: 0.0205
trace zMin: -0.0005
trace zMax: 0.0305
cantilever xMin: 0
cantilever xMax: 0.2
cantilever yMin: 0
cantilever yMax: 0.02
cantilever zMin: 0
cantilever zMax: 0.03
Output dir: output/varying_z_67ffbd38/euler/0.03_1/
Number under force: 35
Number fixed: 35
Number traced: 35
All masses were unique
force is: 7.1125
Volume mass: 0.310612
BBOX From masses: 
mass_xmax: 0.2
mass_xmin: 0
mass_ymax: 0.02
mass_ymin: 0
mass_zmax: 0.03
mass_zmin: 0
Max Spring stiffness: 1.78757e+07
Updates enabled
Movement below epsilon
Std Dev Trace: 1.36767e-15
Release damping at: 400ms
Release point position: -6.86971e-05
100 / 300
200 / 300
