Beam Test Scenario Enabled
XML Loading result: No error
Validating XML...
XML validated successfully...
volume
 id: cantilever
 primitive: cube
 scale: 0.2, 0.02, 0.06
 translate: 0, 0, 0
 rot: 0, 0, 0
 color: 0,0,0
 
volume
 id: anchor
 primitive: cube
 scale: 0.005, 0.021, 0.061
 translate: -0.0025, -0.0005, -0.0005
 color: 255, 0, 0
 
volume
 id: loadpoint
 primitive: cube
 scale: 0.005, 0.021, 0.061
 translate: 0.1975, -0.0005, -0.0005
 color: 0, 255, 0
 
volume
 id: trace
 primitive: cube
 scale: 0.005, 0.021, 0.061
 translate: 0.1975, -0.0005, -0.0005
 color: 0, 255, 0
 
loadcase
 id: L1
  fix
   volume: anchor
  constant
   volume: loadpoint
   magnitude: 0.0, 1.0, 0.0
  accel
   volume: cantilever
   magnitude: 0, 0, 0
 
material
 id: steel-lattice
  elasticity
   modulus: 113.8
   unit: GPa
  lattice
   cell: cubic
   random: true
   vertexmass: 0.00034859
   size: 0.005, 0.005, 0.005
   bardiam: 0.001
   volume: cantilever
   offset: 0, 0, 0
 
rules
 vol: cantilever
 gpu_acceleration: true
  damping
   amount: 0.01
  material
   matid: steel-lattice
  output
   destination: window
   size: 1920, 1080
  load
   load-id: L1
  telemetry
   output_dir: scenarios\random_gpu_rk4\output\varying_z\RK4\0.06_1
  integration
   method: RK4
   time_step: 1e-06
  stop
   simulation_time: 500
   wall_clock_time: 0
   time_unit: ms
 
is_random 1
1
cantilever xMin: 0
cantilever xMax: 0.2
cantilever yMin: 0
cantilever yMax: 0.02
cantilever zMin: 0
cantilever zMax: 0.06
1
anchor xMin: -0.0025
anchor xMax: 0.0025
anchor yMin: -0.0005
anchor yMax: 0.0205
anchor zMin: -0.0005
anchor zMax: 0.0605
1
loadpoint xMin: 0.1975
loadpoint xMax: 0.2025
loadpoint yMin: -0.0005
loadpoint yMax: 0.0205
loadpoint zMin: -0.0005
loadpoint zMax: 0.0605
1
trace xMin: 0.1975
trace xMax: 0.2025
trace yMin: -0.0005
trace yMax: 0.0205
trace zMin: -0.0005
trace zMax: 0.0605
Lattice is random: 1
Building random lattice
Output dir: scenarios\random_gpu_rk4\output\varying_z\RK4\0.06_1
All masses were unique
Calculated number of masses: 2665
Max Spring Connections: 20
Min Spring Connections: 9
Average Spring Connections: 19.8964
Max Spring Length: 0.0181855
Min Spring Length: 0.00327538
Max Spring Stiffness: 2.72879e+07
Min Spring Stiffness: 4.91482e+06
Average Spring Stiffness: 1.40151e+07
2665 masses
initial centroid0.009707
Cuda Device ID: 0
GPU Device was set to: 0
CUDA device name: GeForce GTX 1070
CUDA device major: 6
CUDA device minor: 1
Using RK4 integration method
GPU Acceleration Successfully Enabled
Setting masses_to_trace
1985
1995
2006
2007
2008
2010
2013
2020
2021
2024
2027
2031
2032
2034
2042
2050
2061
2065
2089
2105
2112
2122
2139
2142
2148
2169
2170
2190
2195
2196
2200
2208
GPUSpringMass: Releasing Forces
Sum forces y: 0
Release damping at: 500ms
Release point position: 0.009707
tr size: 500000position_traces_size 500001
Writing output
Elapsed Seconds: 369.577
Avg Time Per Step: 0.000369577
Masses per Second: 7.21095e+06
Springs per Second: 7.17361e+07
