Hiding window!
XML Loading result: No error
Validating XML...
XML validated successfully...
volume
 id: cantilever
 primitive: cube
 scale: 0.2, 0.02, 0.15
 translate: 0, 0, 0
 rot: 0, 0, 0
 
volume
 id: anchor
 primitive: cube
 scale: 0.005, 0.021, 0.151
 translate: -0.0025, -0.0005, -0.0005
 
volume
 id: loadpoint
 primitive: cube
 scale: 0.005, 0.021, 0.151
 translate: 0.1975, -0.0005, -0.0005
 
volume
 id: trace
 primitive: cube
 scale: 0.005, 0.021, 0.151
 translate: 0.1975, -0.0005, -0.0005
 
loadcase
 id: L1
  fix
   volume: anchor
  constant
   volume: loadpoint
   magnitude: 0, -200, 0
  accel
   volume: cantilever
   magnitude: 0, 0, 0
 
material
 id: steel-lattice
  elasticity
   modulus: 113.8
   unit: GPa
  lattice
   cell: cubic
   vertexmass: 0.00034859
   size: 0.005, 0.005, 0.005
   bardiam: 0.001
   volume: cantilever
   offset: 0, 0, 0
 
rules
 vol: cantilever
  damping
   amount: 0.01
  material
   matid: steel-lattice
  output
   destination: window
   size: 1920, 1080
  load
   load-id: L1
  telemetry
   output_dir: output/varying_z_d637139f/euler/0.15_1/
  integration
   method: euler
  stop
   simulation_time: 300
   wall_clock_time: 0
   time_unit: ms
 
1
cantilever xMin: 0
cantilever xMax: 0.2
cantilever yMin: 0
cantilever yMax: 0.02
cantilever zMin: 0
cantilever zMax: 0.15
1
anchor xMin: -0.0025
anchor xMax: 0.0025
anchor yMin: -0.0005
anchor yMax: 0.0205
anchor zMin: -0.0005
anchor zMax: 0.1505
1
loadpoint xMin: 0.1975
loadpoint xMax: 0.2025
loadpoint yMin: -0.0005
loadpoint yMax: 0.0205
loadpoint zMin: -0.0005
loadpoint zMax: 0.1505
1
trace xMin: 0.1975
trace xMax: 0.2025
trace yMin: -0.0005
trace yMax: 0.0205
trace zMin: -0.0005
trace zMax: 0.1505
cantilever xMin: 0
cantilever xMax: 0.2
cantilever yMin: 0
cantilever yMax: 0.02
cantilever zMin: 0
cantilever zMax: 0.15
Output dir: output/varying_z_d637139f/euler/0.15_1/
All masses were unique
Number of masses is correct.
Debug Output
==========
mass_xmax	0.2
mass_xmin	0
mass_ymax	0.02
mass_ymin	0
mass_zmax	0.15
mass_zmin	0
max_spring_stiffness	1.78757e+07
min_spring_stiffness	1.03205e+07
total_volume_mass	1.6632
total_force	0.01138
load_volume_count	155
anchor_volume_count	155
traced_count	155
cantilever_count	6355
total_masses	6355
total_spring_count	68394
==========
Updates enabled
Movement below epsilon
Std Dev Trace: 6.72132e-16
Release damping at: 1000ms
Release point position: 2.22715e-08
num_same_springs: 12
100 / 300
200 / 300
