x,y,z,spring_count
0,0,0,7
0.33,0.005,0.02,17
0.33,0.015,0,17
0.21,0,0.005,17
0.18,0,0,11
0.125,0.015,0.005,26
0.135,0.015,0,17
0.01,0,0,11
0.325,0,0.005,17
0.185,0.005,0,17
0.19,0,0.01,17
0.04,0,0,11
0.045,0.015,0.02,17
0.105,0,0.02,11
0.175,0.01,0.005,26
0.07,0,0.02,11
0.17,0,0,11
0.23,0.02,0.02,11
0.255,0.01,0.02,17
0,0.005,0,11
0.105,0,0,11
0.225,0.015,0,17
0.11,0.015,0.01,26
0.075,0.005,0.01,26
0.16,0.02,0.015,17
0.2,0.015,0,17
0.005,0,0,11
0.305,0.02,0.005,17
0.09,0.005,0,17
0.195,0,0,11
0.295,0.015,0.02,17
0.31,0.015,0,17
0.035,0.01,0.005,26
0.08,0,0,11
0.015,0,0,11
0.295,0,0,11
0.3,0.005,0.015,26
0.275,0.005,0,17
0.16,0.005,0.015,26
0.075,0.015,0,17
0.09,0,0.015,17
0.145,0,0,11
0.245,0.015,0.005,26
0.035,0,0,11
0.03,0,0,11
0.24,0,0.02,11
0.27,0.005,0,17
0.02,0,0,11
0.055,0.015,0,17
0.175,0.01,0,17
0.295,0.005,0.015,26
0.31,0.01,0,17
0.195,0.01,0.01,26
0.19,0,0,11
0.195,0.005,0,17
0.31,0.02,0,11
0.31,0.005,0,17
0.1,0,0,11
0.34,0,0,11
0.025,0,0,11
0.045,0,0.005,17
0.295,0.005,0.005,26
0.14,0.02,0.015,17
0.185,0.01,0.005,26
0.32,0,0,11
0.045,0,0,11
0.22,0.015,0.02,17
0.05,0,0,11
0.055,0,0,11
0.33,0.005,0.01,26
0.04,0.005,0.005,26
0.325,0.01,0.005,26
0.31,0,0,11
0.025,0.015,0.005,26
0.11,0,0.005,17
0.06,0,0,11
0.155,0.01,0.015,26
0.06,0.01,0,17
0.03,0.01,0.01,26
0.26,0.005,0.02,17
0.285,0,0,11
0.25,0.005,0.015,26
0.16,0.015,0,17
0.31,0,0.01,17
0.065,0,0,11
0.06,0,0.005,17
0.07,0,0,11
0.16,0.02,0,11
0.155,0.005,0,17
0.075,0,0,11
0.245,0.005,0.015,26
0.12,0.005,0.015,26
0.21,0.02,0.005,17
0.28,0.02,0.01,17
0.055,0.005,0.005,26
0.29,0,0,11
0.01,0.005,0.015,26
0.035,0.005,0,17
0.085,0,0,11
0,0.005,0.005,17
0.125,0.005,0.015,26
0.34,0.02,0,11
0.09,0,0,11
0.35,0.02,0,7
0.215,0.005,0.015,26
0.265,0.01,0,17
0.055,0.015,0.015,26
0.095,0,0,11
0.225,0.01,0.01,26
0.015,0.02,0.02,11
0.275,0,0.005,17
0.11,0,0,11
0.28,0.01,0,17
0.115,0,0,11
0.09,0.02,0,11
0.12,0,0,11
0.07,0.005,0.005,26
0.305,0.005,0.02,17
0.24,0.01,0,17
0.175,0,0,11
0.125,0,0,11
0.18,0.015,0,17
0.13,0,0,11
0.35,0.015,0.005,17
0.115,0.005,0.005,26
0.135,0,0,11
0.34,0.005,0.01,26
0.14,0,0,11
0.28,0.01,0.005,26
0.205,0.02,0.015,17
0.245,0,0,11
0.065,0.01,0.01,26
0.235,0.01,0.015,26
0.105,0.015,0,17
0.115,0.005,0.01,26
0.075,0.005,0,17
0.24,0,0,11
0.205,0.02,0,11
0.25,0.015,0.005,26
0.2,0.005,0.015,26
0.15,0,0.015,17
0.15,0,0,11
0.085,0.01,0.005,26
0.255,0.02,0.015,17
0.155,0,0,11
0.255,0.01,0,17
0.075,0.005,0.005,26
0.28,0.015,0.015,26
0.16,0,0,11
0.315,0,0,11
0.22,0,0,11
0.285,0.005,0.01,26
0.165,0,0,11
0.19,0.02,0.015,17
0.34,0.015,0.015,26
0.185,0,0,11
0.13,0.005,0.02,17
0.05,0.02,0.015,17
0.2,0,0,11
0.205,0,0,11
0.315,0,0.005,17
0.005,0.005,0,17
0.21,0,0,11
0.15,0.005,0.015,26
0.23,0.02,0.005,17
0.23,0.02,0,11
0.215,0,0,11
0.34,0.02,0.005,17
0.175,0,0.02,11
0.225,0,0,11
0.14,0,0.01,17
0.055,0.01,0.005,26
0.23,0,0,11
0.215,0.01,0,17
0.235,0,0,11
0.295,0.015,0.005,26
0.265,0.015,0.015,26
0.3,0,0,11
0.235,0.015,0.01,26
0.235,0.02,0,11
0.25,0,0,11
0.04,0.01,0.01,26
0.275,0.01,0,17
0.255,0,0,11
0.345,0.015,0.005,26
0.305,0.02,0,11
0.23,0.015,0,17
0.28,0,0,11
0.26,0,0,11
0.265,0,0,11
0.22,0.015,0.005,26
0.065,0.005,0,17
0.275,0,0,11
0.09,0,0.01,17
0.08,0.02,0.02,11
0.165,0.005,0,17
0.27,0,0,11
0.305,0,0,11
0.17,0.015,0.01,26
0.3,0.01,0,17
0.175,0.005,0.005,26
0.325,0,0,11
0.03,0.015,0.015,26
0.3,0.02,0,11
0.265,0,0.015,17
0.015,0.01,0.01,26
0.33,0,0,11
0.335,0,0,11
0.345,0,0,11
0.235,0.005,0.01,26
0.28,0.01,0.01,26
0.265,0,0.01,17
0.205,0.015,0,17
0.155,0.01,0,17
0.35,0,0,7
0.01,0.005,0,17
0.23,0.015,0.005,26
0.19,0.015,0,17
0.015,0.005,0,17
0.295,0.02,0,11
0.075,0.015,0.01,26
0.145,0.02,0.01,17
0.02,0.005,0,17
0.09,0.015,0,17
0.025,0.005,0,17
0.185,0.005,0.005,26
0.215,0.01,0.02,17
0.03,0.005,0.015,26
0.03,0.005,0,17
0.18,0.01,0.01,26
0.18,0.005,0.005,26
0.055,0.02,0.01,17
0.29,0.01,0,17
0.335,0.005,0,17
0.04,0.005,0,17
0.045,0.005,0,17
0.34,0.005,0,17
0.26,0.005,0.01,26
0.05,0.005,0,17
0.055,0.02,0.02,11
0.055,0.005,0,17
0.005,0.015,0.005,26
0.195,0.015,0.02,17
0.06,0.005,0,17
0.07,0.005,0,17
0.005,0.005,0.02,17
0.225,0.02,0.005,17
0.16,0.01,0.015,26
0.08,0.005,0,17
0.055,0.02,0.005,17
0.235,0.005,0.005,26
0.085,0.005,0,17
0.345,0.005,0.01,26
0.34,0.01,0.01,26
0.35,0.015,0,11
0.095,0.005,0,17
0.16,0.01,0.01,26
0.19,0.015,0.02,17
0.335,0,0.005,17
0.275,0.015,0.005,26
0.09,0.01,0.02,17
0.1,0.005,0,17
0.075,0.01,0,17
0.2,0.01,0.005,26
0.06,0.01,0.01,26
0.08,0.01,0.02,17
0.105,0.005,0,17
0.32,0.01,0,17
0.01,0.015,0.01,26
0.33,0.015,0.02,17
0.335,0,0.01,17
0.11,0.005,0,17
0.035,0.005,0.01,26
0.205,0.015,0.015,26
0.18,0.015,0.005,26
0.115,0.005,0,17
0.02,0.005,0.015,26
0.33,0.02,0,11
0.19,0.02,0.02,11
0.295,0.01,0.02,17
0.24,0.01,0.02,17
0.19,0.01,0,17
0.125,0.02,0.005,17
0.305,0,0.01,17
0.12,0.005,0,17
0.13,0.02,0.01,17
0.125,0.005,0,17
0.05,0,0.005,17
0.145,0.005,0,17
0.07,0.015,0.01,26
0.085,0.01,0.015,26
0.27,0.02,0,11
0.315,0.005,0.01,26
0.025,0.02,0.015,17
0.13,0.005,0,17
0.065,0,0.005,17
0.285,0.01,0,17
0.135,0.005,0,17
0.14,0.005,0,17
0.21,0,0.01,17
0.045,0.01,0.005,26
0.15,0.005,0,17
0.195,0.02,0.005,17
0.225,0.02,0,11
0.105,0.01,0.02,17
0.16,0.005,0,17
0.08,0.015,0.015,26
0.035,0.01,0,17
0,0.02,0.01,11
0.35,0.02,0.015,11
0.17,0.005,0,17
0.145,0.015,0.02,17
0.2,0,0.015,17
0.205,0.01,0,17
0.175,0.005,0,17
0.175,0.01,0.01,26
0.145,0,0.015,17
0.18,0.005,0,17
0.19,0.005,0,17
0.2,0.005,0,17
0.01,0.02,0.005,17
0.205,0.005,0,17
0.29,0.005,0.01,26
0.21,0.005,0,17
0.23,0.02,0.015,17
0.215,0.005,0,17
0.22,0.005,0,17
0.12,0.01,0.005,26
0,0.015,0.005,17
0.35,0,0.02,7
0.26,0,0.005,17
0.2,0,0.01,17
0.255,0.015,0,17
0.225,0.005,0,17
0.005,0,0.01,17
0.01,0.02,0.02,11
0.19,0,0.02,11
0.205,0.01,0.005,26
0.335,0.015,0.02,17
0.25,0,0.005,17
0.23,0.005,0,17
0.225,0,0.005,17
0.2,0.01,0.02,17
0.235,0.005,0,17
0.09,0.005,0.015,26
0.24,0.005,0,17
0.23,0.005,0.015,26
0.235,0.01,0.01,26
0.245,0.005,0,17
0.245,0.02,0.005,17
0.31,0.02,0.015,17
0.25,0.005,0,17
0.165,0,0.01,17
0.255,0.005,0,17
0.235,0.015,0.02,17
0.125,0.015,0,17
0.26,0.005,0,17
0.15,0.005,0.01,26
0.23,0.01,0,17
0.285,0.02,0,11
0.265,0.005,0,17
0.13,0.02,0.005,17
0.28,0.005,0,17
0.06,0.01,0.005,26
0.285,0.005,0,17
0.29,0.005,0,17
0.025,0.015,0.02,17
0.295,0.005,0,17
0.3,0.005,0,17
0.145,0,0.005,17
0.245,0.02,0,11
0.2,0.02,0.005,17
0.135,0.015,0.01,26
0.085,0.02,0.005,17
0.305,0.005,0,17
0.33,0.01,0.01,26
0.1,0.01,0.015,26
0.315,0.005,0,17
0.32,0.005,0,17
0.14,0.01,0,17
0.3,0.02,0.02,11
0.11,0.01,0,17
0.325,0.005,0,17
0.33,0.005,0,17
0.325,0.005,0.015,26
0.22,0.01,0.01,26
0.05,0.01,0.005,26
0.345,0.005,0,17
0.25,0.005,0.01,26
0.2,0.005,0.005,26
0.26,0.015,0,17
0.35,0.005,0,11
0.155,0,0.005,17
0,0.01,0,11
0.22,0.01,0.005,26
0.045,0.02,0.01,17
0.18,0.02,0,11
0.075,0.01,0.005,26
0.085,0.02,0.02,11
0.005,0.01,0,17
0.145,0.005,0.015,26
0.01,0.01,0,17
0.175,0.015,0.005,26
0.015,0.01,0,17
0.02,0.01,0,17
0.02,0.015,0.005,26
0.305,0.01,0.01,26
0.025,0.01,0,17
0.03,0.01,0,17
0.04,0.01,0,17
0.13,0.01,0.01,26
0.05,0.01,0.015,26
0.19,0,0.015,17
0.045,0.01,0,17
0.24,0,0.01,17
0.315,0.01,0,17
0.145,0.015,0.015,26
0.255,0.02,0,11
0.165,0,0.015,17
0.085,0.01,0,17
0.35,0.01,0.01,17
0.05,0.01,0,17
0.06,0,0.015,17
0.055,0.01,0,17
0.19,0.005,0.02,17
0.25,0.015,0,17
0.08,0,0.005,17
0.27,0.005,0.01,26
0.04,0.02,0.015,17
0.26,0,0.015,17
0.065,0.01,0,17
0.08,0,0.01,17
0.07,0.01,0,17
0.08,0.01,0.005,26
0.08,0.01,0,17
0.31,0.005,0.015,26
0.09,0.01,0,17
0.195,0.005,0.01,26
0.095,0.01,0,17
0.155,0.01,0.02,17
0.33,0,0.01,17
0.01,0.01,0.02,17
0.1,0.01,0,17
0.105,0.01,0,17
0.3,0.015,0,17
0.09,0.01,0.015,26
0.115,0.01,0,17
0.225,0.005,0.02,17
0.12,0.01,0,17
0.07,0.02,0,11
0.125,0.01,0,17
0.215,0.01,0.005,26
0.185,0.005,0.02,17
0.13,0.01,0,17
0.275,0.01,0.015,26
0.27,0.01,0,17
0.135,0.01,0,17
0.04,0.02,0.01,17
0.01,0.015,0,17
0.26,0.01,0.02,17
0.145,0.01,0,17
0.26,0.015,0.005,26
0.265,0.01,0.015,26
0.15,0.01,0,17
0.045,0.005,0.005,26
0.16,0.01,0,17
0.1,0,0.005,17
0.15,0,0.005,17
0.165,0.01,0,17
0.275,0.02,0,11
0.17,0.01,0,17
0.315,0.01,0.015,26
0.18,0.01,0,17
0.325,0.02,0,11
0.185,0.01,0,17
0.09,0.015,0.005,26
0.23,0.005,0.005,26
0.195,0.01,0,17
0.285,0.005,0.015,26
0.34,0,0.005,17
0.015,0,0.015,17
0.26,0.01,0.01,26
0.265,0.02,0,11
0.2,0.01,0,17
0.3,0.015,0.005,26
0.09,0.005,0.005,26
0.165,0.01,0.015,26
0.21,0.01,0,17
0.17,0.015,0.005,26
0.1,0,0.01,17
0.235,0.005,0.02,17
0.22,0.01,0,17
0.225,0.01,0,17
0.235,0.01,0,17
0.245,0.01,0,17
0.31,0.015,0.02,17
0.25,0.01,0,17
0.23,0.015,0.015,26
0.26,0.01,0,17
0.125,0.02,0.01,17
0.265,0.02,0.015,17
0.295,0.01,0,17
0.035,0.015,0.01,26
0.095,0.01,0.02,17
0.305,0.015,0,17
0.305,0.01,0,17
0.325,0.01,0,17
0.1,0.01,0.01,26
0.33,0.01,0,17
0.335,0.01,0,17
0.03,0,0.01,17
0.35,0.005,0.015,17
0.32,0.005,0.005,26
0.315,0.02,0.01,17
0.34,0.01,0,17
0.345,0.01,0,17
0.13,0.005,0.015,26
0.35,0.01,0,11
0.2,0.005,0.01,26
0,0.015,0,11
0.12,0.02,0,11
0.005,0.015,0,17
0.215,0.015,0.015,26
0.14,0,0.005,17
0.235,0.02,0.015,17
0.015,0.015,0,17
0.245,0,0.015,17
0.155,0.02,0,11
0.02,0.015,0,17
0.025,0.015,0,17
0.03,0.015,0,17
0.09,0,0.005,17
0.035,0.015,0,17
0.32,0.02,0.015,17
0.32,0.015,0,17
0.04,0.015,0,17
0.045,0.015,0,17
0.015,0.005,0.01,26
0.3,0.005,0.005,26
0.27,0.01,0.02,17
0.345,0,0.005,17
0.25,0.01,0.01,26
0.255,0.015,0.015,26
0.05,0.015,0,17
0.35,0.02,0.02,7
0.06,0.015,0,17
0.1,0.015,0.01,26
0.065,0.015,0,17
0.22,0.01,0.02,17
0.215,0.005,0.005,26
0.14,0.005,0.02,17
0.07,0.015,0,17
0.2,0.015,0.01,26
0.32,0,0.01,17
0.035,0.015,0.02,17
0.125,0.005,0.005,26
0.295,0,0.02,11
0.28,0.005,0.01,26
0.08,0.015,0,17
0.085,0.015,0,17
0.31,0.005,0.005,26
0.145,0.015,0,17
0.095,0.015,0,17
0.1,0.005,0.005,26
0.1,0.015,0,17
0.035,0.02,0,11
0.085,0.01,0.01,26
0.11,0.015,0,17
0.155,0.005,0.005,26
0.065,0.015,0.005,26
0.155,0,0.01,17
0.07,0.01,0.01,26
0.115,0.015,0,17
0.12,0.015,0,17
0.125,0.015,0.02,17
0.13,0.015,0,17
0.025,0.02,0,11
0.155,0.005,0.01,26
0.185,0,0.02,11
0.14,0.015,0,17
0.35,0.02,0.005,11
0.15,0.015,0,17
0.35,0.005,0.005,17
0.155,0.015,0,17
0.34,0.01,0.005,26
0.195,0.005,0.005,26
0.165,0.015,0,17
0.17,0.015,0,17
0.175,0.015,0,17
0.33,0.005,0.015,26
0.28,0.015,0,17
0.185,0.015,0,17
0.245,0.005,0.01,26
0.18,0.005,0.02,17
0.195,0.015,0,17
0.21,0.015,0,17
0.215,0.015,0,17
0.285,0.015,0.01,26
0.21,0.015,0.02,17
0.22,0.015,0,17
0.22,0.005,0.01,26
0.255,0.01,0.015,26
0.02,0.01,0.005,26
0.235,0.015,0,17
0.24,0.015,0,17
0.245,0.015,0,17
0.245,0,0.01,17
0.265,0.015,0,17
0.27,0.015,0,17
0.075,0,0.01,17
0.135,0.02,0,11
0.275,0.015,0,17
0.03,0.02,0,11
0.245,0.01,0.01,26
0.215,0.015,0.02,17
0.315,0.015,0,17
0.06,0,0.02,11
0.01,0.02,0.015,17
0.345,0.015,0.015,26
0.285,0.015,0,17
0.32,0.02,0.005,17
0.255,0.01,0.005,26
0.29,0.015,0,17
0.305,0.02,0.015,17
0.21,0.005,0.005,26
0.01,0.01,0.01,26
0.295,0.015,0,17
0.175,0,0.005,17
0.045,0,0.01,17
0.325,0.015,0,17
0.305,0.01,0.02,17
0.1,0.005,0.015,26
0.03,0.01,0.005,26
0.33,0.015,0.005,26
0.335,0.015,0,17
0.03,0.02,0.02,11
0.34,0.015,0,17
0.345,0.015,0,17
0.07,0.01,0.005,26
0.12,0.015,0.01,26
0,0.02,0,7
0.005,0.02,0,11
0.02,0,0.005,17
0.01,0.02,0,11
0.32,0.02,0.01,17
0.015,0.02,0,11
0.02,0.02,0,11
0.16,0,0.01,17
0.04,0.02,0,11
0.045,0.02,0,11
0.165,0.005,0.005,26
0.05,0.02,0,11
0.28,0,0.005,17
0.345,0.005,0.005,26
0.055,0.02,0,11
0.26,0.005,0.005,26
0.04,0,0.01,17
0.15,0,0.02,11
0.06,0.02,0,11
0.075,0.02,0.005,17
0.055,0,0.01,17
0.08,0.005,0.01,26
0.02,0.005,0.02,17
0.065,0.02,0,11
0.185,0,0.005,17
0.075,0.02,0,11
0.08,0.02,0,11
0.07,0.01,0.015,26
0.16,0,0.015,17
0.295,0,0.01,17
0.085,0.02,0,11
0.165,0.01,0.005,26
0.21,0.01,0.015,26
0.095,0.02,0,11
0.235,0,0.015,17
0.1,0.02,0,11
0.1,0.02,0.005,17
0.105,0.02,0,11
0.11,0.02,0,11
0.115,0.02,0,11
0.14,0.02,0.005,17
0.185,0.015,0.01,26
0.125,0.02,0,11
0.23,0,0.02,11
0.225,0.005,0.005,26
0.13,0.02,0,11
0.265,0.015,0.01,26
0.245,0.005,0.005,26
0.115,0.02,0.02,11
0.14,0.02,0,11
0.005,0,0.02,11
0.1,0,0.015,17
0.015,0,0.005,17
0.295,0,0.005,17
0.145,0.02,0,11
0.27,0,0.01,17
0.095,0,0.005,17
0.15,0.02,0,11
0.205,0.005,0.005,26
0.215,0.02,0,11
0.165,0.02,0,11
0.225,0.015,0.02,17
0.05,0,0.015,17
0.115,0,0.005,17
0.17,0.02,0,11
0.175,0.02,0.01,17
0.175,0.02,0,11
0.185,0.02,0,11
0.13,0.005,0.01,26
0.34,0,0.01,17
0.19,0.02,0,11
0.25,0.005,0.005,26
0.195,0.02,0,11
0.2,0.02,0,11
0.35,0,0.005,11
0.07,0.02,0.005,17
0.07,0.02,0.01,17
0.115,0.01,0.02,17
0.12,0,0.015,17
0.21,0.02,0,11
0.095,0.02,0.01,17
0.22,0.02,0,11
0.015,0.015,0.015,26
0.265,0,0.005,17
0.24,0.02,0,11
0.265,0.02,0.02,11
0.04,0.015,0.01,26
0.25,0.02,0,11
0.01,0.01,0.005,26
0.26,0.02,0,11
0.03,0.005,0.005,26
0.28,0.02,0,11
0.305,0,0.005,17
0.29,0.02,0,11
0.315,0.02,0,11
0.245,0.01,0.005,26
0.035,0,0.01,17
0.275,0.005,0.02,17
0.22,0.005,0.005,26
0.255,0.015,0.01,26
0.32,0.02,0,11
0.335,0.02,0,11
0.345,0.02,0,11
0,0,0.005,11
0.255,0,0.01,17
0.28,0.02,0.005,17
0.005,0,0.005,17
0.205,0,0.015,17
0.01,0,0.005,17
0.025,0,0.005,17
0.03,0,0.005,17
0.03,0.015,0.02,17
0.035,0,0.005,17
0.085,0.015,0.01,26
0.04,0,0.005,17
0.015,0.01,0.02,17
0.16,0,0.005,17
0.055,0,0.005,17
0,0.01,0.01,17
0.07,0,0.005,17
0.2,0.015,0.02,17
0.255,0,0.005,17
0.145,0.02,0.02,11
0.075,0,0.005,17
0.245,0,0.005,17
0.2,0.005,0.02,17
0.085,0,0.005,17
0.105,0,0.005,17
0.005,0.005,0.005,26
0.12,0,0.005,17
0.125,0,0.005,17
0.14,0.015,0.005,26
0.025,0.005,0.005,26
0.13,0,0.005,17
0.015,0.02,0.015,17
0.135,0,0.005,17
0.16,0.02,0.01,17
0.165,0,0.005,17
0,0.005,0.02,11
0.17,0,0.005,17
0.31,0.02,0.02,11
0.23,0,0.005,17
0.18,0,0.005,17
0.335,0.005,0.005,26
0.19,0,0.005,17
0.305,0.01,0.005,26
0.14,0.02,0.02,11
0.115,0,0.02,11
0.195,0,0.005,17
0.215,0.01,0.01,26
0.285,0.005,0.005,26
0.065,0.005,0.02,17
0,0.005,0.015,17
0.2,0,0.005,17
0.16,0.005,0.01,26
0.235,0,0.01,17
0.205,0,0.005,17
0.23,0.005,0.01,26
0.215,0,0.005,17
0.22,0,0.005,17
0.06,0,0.01,17
0.235,0,0.005,17
0.24,0,0.005,17
0.31,0.01,0.005,26
0.295,0.01,0.005,26
0.265,0.01,0.02,17
0.27,0,0.005,17
0.285,0,0.005,17
0.34,0,0.015,17
0.29,0,0.005,17
0.3,0,0.005,17
0.295,0.02,0.005,17
0.31,0,0.005,17
0.305,0.005,0.01,26
0.28,0.02,0.02,11
0.32,0,0.005,17
0.275,0.015,0.02,17
0.33,0,0.005,17
0.295,0.015,0.015,26
0.01,0.005,0.005,26
0.015,0.005,0.005,26
0.14,0.015,0.01,26
0.02,0.005,0.005,26
0.105,0.01,0.005,26
0.035,0.005,0.005,26
0.05,0.01,0.02,17
0.05,0.005,0.005,26
0.14,0,0.02,11
0.14,0.005,0.005,26
0.06,0.005,0.005,26
0.09,0.02,0.005,17
0.135,0,0.01,17
0.065,0.005,0.005,26
0.08,0.005,0.005,26
0.275,0.02,0.01,17
0.085,0.005,0.005,26
0.095,0.005,0.005,26
0.165,0.015,0.005,26
0.285,0.02,0.005,17
0.105,0.005,0.005,26
0.09,0.02,0.01,17
0.045,0,0.015,17
0.11,0.005,0.005,26
0.12,0.005,0.005,26
0.13,0.005,0.005,26
0.28,0.015,0.005,26
0.135,0.005,0.005,26
0.13,0,0.01,17
0.14,0,0.015,17
0.145,0.005,0.005,26
0.29,0.005,0.005,26
0.15,0.005,0.005,26
0.16,0.005,0.005,26
0.17,0.005,0.005,26
0.19,0.005,0.005,26
0.24,0.005,0.005,26
0.085,0.02,0.015,17
0.255,0.005,0.005,26
0.265,0.005,0.005,26
0.27,0.005,0.015,26
0.025,0,0.015,17
0.27,0.005,0.005,26
0.06,0.015,0.015,26
0.145,0,0.01,17
0.275,0.005,0.005,26
0.28,0.005,0.005,26
0.095,0.02,0.005,17
0.305,0.005,0.005,26
0.315,0.005,0.005,26
0.325,0.005,0.005,26
0.33,0.005,0.005,26
0.05,0.015,0.02,17
0.315,0.01,0.005,26
0.34,0.005,0.005,26
0.045,0.01,0.02,17
0,0.01,0.02,11
0,0.01,0.005,17
0.005,0.01,0.005,26
0.015,0.01,0.005,26
0.025,0.01,0.005,26
0.28,0.005,0.015,26
0.04,0.01,0.005,26
0.065,0.01,0.005,26
0.09,0.01,0.005,26
0.145,0.015,0.005,26
0.29,0.015,0.01,26
0.095,0.01,0.005,26
0.24,0.02,0.02,11
0.205,0.02,0.005,17
0.065,0.02,0.01,17
0.1,0.01,0.005,26
0.11,0.01,0.005,26
0.135,0,0.015,17
0.115,0.01,0.005,26
0.315,0.005,0.015,26
0.045,0.015,0.005,26
0.125,0.01,0.005,26
0.205,0.01,0.015,26
0.025,0.01,0.015,26
0.13,0.01,0.005,26
0.04,0.01,0.015,26
0.105,0.005,0.01,26
0.135,0.01,0.005,26
0.215,0.005,0.02,17
0.14,0.01,0.005,26
0.18,0.02,0.015,17
0.145,0.01,0.005,26
0.15,0.01,0.005,26
0.155,0.01,0.005,26
0.285,0.01,0.01,26
0.165,0.015,0.02,17
0.16,0.01,0.005,26
0.17,0.01,0.005,26
0.21,0.02,0.02,11
0.18,0.01,0.005,26
0.325,0.005,0.01,26
0.19,0.01,0.005,26
0.195,0.015,0.005,26
0.05,0.01,0.01,26
0,0,0.02,7
0.195,0.01,0.005,26
0.215,0.015,0.01,26
0.2,0.02,0.01,17
0.21,0.01,0.005,26
0.12,0.01,0.01,26
0.225,0.01,0.005,26
0.23,0.01,0.005,26
0.235,0.01,0.005,26
0.15,0.02,0.015,17
0.24,0.01,0.005,26
0.25,0.01,0.005,26
0.015,0,0.01,17
0.26,0.01,0.005,26
0.3,0.02,0.01,17
0.265,0.01,0.005,26
0.27,0.01,0.005,26
0.285,0.015,0.02,17
0.24,0.015,0.005,26
0.275,0.01,0.005,26
0.285,0.01,0.005,26
0.24,0.01,0.01,26
0.29,0.01,0.005,26
0.295,0.015,0.01,26
0.3,0.01,0.005,26
0.295,0.005,0.01,26
0.215,0.02,0.005,17
0.32,0.01,0.005,26
0.225,0,0.01,17
0.33,0.01,0.005,26
0.335,0.01,0.005,26
0.29,0.02,0.005,17
0.085,0.02,0.01,17
0.03,0.01,0.015,26
0.345,0.01,0.005,26
0.34,0.015,0.005,26
0.28,0.015,0.02,17
0.35,0.01,0.005,17
0.205,0.02,0.02,11
0.185,0.01,0.015,26
0.01,0.015,0.005,26
0.015,0.015,0.005,26
0.1,0.015,0.005,26
0.19,0.015,0.015,26
0.03,0.015,0.005,26
0.335,0.01,0.01,26
0.015,0.005,0.02,17
0.035,0.015,0.005,26
0.04,0.015,0.005,26
0.05,0.015,0.005,26
0.055,0.015,0.005,26
0.25,0.005,0.02,17
0.06,0.015,0.005,26
0.01,0.005,0.01,26
0.07,0.015,0.005,26
0.245,0.015,0.02,17
0.03,0.015,0.01,26
0.075,0.015,0.005,26
0.08,0.015,0.02,17
0.035,0.02,0.01,17
0.08,0.015,0.005,26
0.095,0.01,0.01,26
0.085,0.015,0.005,26
0.095,0.015,0.005,26
0.105,0.015,0.005,26
0.225,0.015,0.01,26
0.26,0.02,0.02,11
0.11,0.015,0.005,26
0.02,0.015,0.015,26
0.24,0.01,0.015,26
0.185,0,0.01,17
0.115,0.015,0.005,26
0.12,0.015,0.005,26
0.13,0.015,0.005,26
0.135,0.015,0.005,26
0.32,0.005,0.01,26
0.09,0.015,0.015,26
0.15,0.015,0.005,26
0.155,0.015,0.005,26
0.16,0.015,0.005,26
0.185,0.015,0.005,26
0.325,0.015,0.005,26
0.19,0.015,0.005,26
0.32,0.015,0.01,26
0.2,0.015,0.005,26
0.135,0.005,0.02,17
0.205,0.015,0.005,26
0.155,0.02,0.01,17
0.21,0.015,0.005,26
0.215,0.015,0.005,26
0.12,0.02,0.02,11
0.225,0.015,0.005,26
0.23,0.01,0.01,26
0.235,0.015,0.005,26
0.135,0.02,0.005,17
0.245,0.015,0.01,26
0.255,0.015,0.005,26
0.15,0,0.01,17
0.265,0.015,0.005,26
0.27,0.015,0.005,26
0.285,0.015,0.005,26
0.29,0.015,0.005,26
0.27,0.02,0.005,17
0.305,0.015,0.005,26
0.31,0.015,0.005,26
0.32,0.02,0.02,11
0.13,0,0.015,17
0.315,0.015,0.005,26
0.32,0.015,0.005,26
0.22,0,0.01,17
0.335,0.015,0.005,26
0,0.02,0.005,11
0.06,0.01,0.015,26
0.005,0.02,0.005,17
0.015,0.02,0.005,17
0.02,0.02,0.005,17
0.1,0.005,0.01,26
0.025,0.02,0.005,17
0.29,0.02,0.02,11
0.03,0.02,0.005,17
0.04,0.005,0.01,26
0.035,0.02,0.005,17
0.04,0.02,0.005,17
0.045,0.02,0.005,17
0.135,0.015,0.02,17
0.21,0.015,0.015,26
0.05,0.02,0.005,17
0.345,0.005,0.02,17
0.06,0.02,0.005,17
0.005,0.01,0.02,17
0.195,0.01,0.015,26
0.075,0.005,0.015,26
0.065,0.02,0.005,17
0.125,0,0.01,17
0.08,0.02,0.005,17
0.095,0.015,0.02,17
0.105,0.02,0.005,17
0.105,0.015,0.02,17
0.305,0,0.015,17
0.11,0.02,0.005,17
0.115,0.02,0.005,17
0.12,0.02,0.005,17
0.145,0.02,0.005,17
0.15,0.01,0.015,26
0.15,0.02,0.005,17
0.155,0.02,0.005,17
0.16,0.02,0.005,17
0.165,0.02,0.005,17
0.17,0.02,0.005,17
0.175,0.02,0.005,17
0.31,0.01,0.01,26
0.18,0.02,0.005,17
0.185,0.02,0.005,17
0.19,0.02,0.005,17
0.3,0.005,0.01,26
0.025,0,0.02,11
0.22,0.02,0.005,17
0.27,0.02,0.015,17
0.175,0.015,0.015,26
0.235,0.02,0.005,17
0.24,0.02,0.005,17
0.25,0.02,0.005,17
0.255,0.02,0.005,17
0.07,0,0.015,17
0.075,0.01,0.01,26
0.26,0.02,0.005,17
0.265,0.02,0.005,17
0.275,0.02,0.005,17
0.3,0.02,0.005,17
0.31,0.02,0.005,17
0.315,0.02,0.005,17
0.325,0.02,0.005,17
0.11,0,0.01,17
0.12,0,0.01,17
0.175,0.005,0.01,26
0.33,0.02,0.005,17
0.065,0.005,0.01,26
0.335,0.02,0.005,17
0.19,0.005,0.01,26
0.18,0.005,0.01,26
0.345,0.02,0.005,17
0,0,0.01,11
0.06,0.015,0.02,17
0.22,0.02,0.015,17
0.01,0,0.01,17
0.02,0,0.01,17
0.095,0.015,0.015,26
0.025,0,0.01,17
0.05,0,0.01,17
0.3,0,0.01,17
0.3,0.01,0.01,26
0.065,0,0.01,17
0.07,0,0.01,17
0.095,0.005,0.02,17
0.085,0,0.01,17
0.095,0,0.01,17
0.105,0,0.01,17
0.115,0,0.01,17
0.195,0,0.02,11
0.17,0,0.01,17
0.325,0,0.01,17
0.175,0,0.01,17
0.18,0,0.01,17
0.195,0,0.01,17
0.16,0.01,0.02,17
0.205,0,0.01,17
0.215,0,0.01,17
0.17,0.01,0.01,26
0.23,0,0.01,17
0.115,0.015,0.01,26
0.01,0.02,0.01,17
0.21,0.005,0.02,17
0.25,0,0.01,17
0.025,0.02,0.01,17
0.26,0,0.01,17
0.345,0.015,0.02,17
0.33,0.01,0.02,17
0.275,0,0.01,17
0.27,0.005,0.02,17
0.28,0,0.01,17
0.265,0,0.02,11
0.285,0,0.01,17
0.05,0.005,0.02,17
0.15,0.02,0.01,17
0.29,0,0.01,17
0.315,0,0.01,17
0.24,0.015,0.01,26
0.32,0,0.015,17
0.03,0.005,0.01,26
0.345,0,0.01,17
0.08,0.02,0.01,17
0.35,0,0.01,11
0,0.005,0.01,17
0.005,0.005,0.01,26
0.07,0.005,0.01,26
0.075,0.02,0.01,17
0.14,0.02,0.01,17
0.155,0,0.02,11
0.02,0.005,0.01,26
0.29,0.005,0.015,26
0.025,0.005,0.01,26
0.045,0.005,0.01,26
0.17,0.02,0.015,17
0.335,0.005,0.015,26
0.26,0.02,0.01,17
0.115,0.01,0.01,26
0.265,0.01,0.01,26
0.05,0.005,0.01,26
0.055,0.005,0.01,26
0.06,0.005,0.01,26
0.215,0.005,0.01,26
0.085,0.005,0.01,26
0.05,0.015,0.01,26
0.09,0.005,0.01,26
0.095,0.005,0.01,26
0.11,0.005,0.01,26
0.12,0.005,0.01,26
0.125,0.005,0.01,26
0.185,0.02,0.01,17
0.135,0.005,0.01,26
0.14,0.005,0.01,26
0.145,0.005,0.01,26
0.02,0.015,0.01,26
0.165,0.005,0.01,26
0.17,0.005,0.01,26
0.185,0.005,0.01,26
0.105,0.015,0.015,26
0.205,0.005,0.01,26
0.14,0.005,0.015,26
0.21,0.005,0.01,26
0.225,0.005,0.01,26
0.24,0.005,0.01,26
0.255,0.005,0.01,26
0.04,0.01,0.02,17
0.265,0.005,0.01,26
0.275,0.005,0.01,26
0.31,0.005,0.01,26
0.335,0.005,0.01,26
0.35,0.005,0.01,17
0.005,0.01,0.01,26
0.02,0.01,0.01,26
0.025,0.01,0.01,26
0.035,0.01,0.01,26
0.155,0.015,0.01,26
0.045,0.01,0.01,26
0.055,0.01,0.01,26
0.065,0.01,0.02,17
0.08,0.01,0.01,26
0.075,0.02,0.02,11
0.165,0.015,0.01,26
0.09,0.01,0.01,26
0.105,0.01,0.01,26
0.11,0.01,0.01,26
0.125,0.01,0.01,26
0.135,0.01,0.01,26
0.14,0.01,0.01,26
0.005,0.015,0.01,26
0.145,0.01,0.01,26
0.15,0.01,0.01,26
0.065,0,0.015,17
0.155,0.01,0.01,26
0.165,0.01,0.01,26
0.12,0.01,0.015,26
0.185,0.01,0.01,26
0.19,0.01,0.01,26
0.2,0.01,0.01,26
0.305,0.02,0.02,11
0.205,0.01,0.01,26
0.21,0.01,0.01,26
0.255,0.01,0.01,26
0.345,0.005,0.015,26
0.27,0.01,0.01,26
0.275,0.01,0.01,26
0.29,0.01,0.01,26
0.295,0.01,0.01,26
0.315,0.01,0.01,26
0.045,0.015,0.015,26
0.32,0.01,0.01,26
0.325,0.01,0.01,26
0.175,0,0.015,17
0.345,0.01,0.01,26
0,0.015,0.01,17
0.225,0,0.02,11
0.015,0.015,0.01,26
0.025,0.015,0.01,26
0.045,0.015,0.01,26
0.055,0.015,0.01,26
0.06,0.015,0.01,26
0.065,0.015,0.01,26
0.09,0.015,0.01,26
0.08,0.015,0.01,26
0.33,0,0.02,11
0.095,0.015,0.01,26
0.225,0.015,0.015,26
0.105,0.015,0.01,26
0.23,0.015,0.01,26
0.15,0.015,0.02,17
0.125,0.015,0.01,26
0.13,0.015,0.01,26
0.33,0.02,0.01,17
0.145,0.015,0.01,26
0.215,0,0.015,17
0.15,0.015,0.01,26
0.16,0.015,0.01,26
0.32,0.015,0.015,26
0.175,0.015,0.01,26
0.18,0.015,0.01,26
0.19,0.015,0.01,26
0.195,0.015,0.01,26
0.205,0.015,0.01,26
0.25,0.015,0.01,26
0.21,0.015,0.01,26
0.22,0.015,0.01,26
0.26,0.015,0.01,26
0.27,0.015,0.01,26
0.275,0.015,0.01,26
0.28,0.015,0.01,26
0.3,0.015,0.01,26
0.305,0.015,0.01,26
0.31,0.015,0.01,26
0.315,0.015,0.01,26
0.325,0.015,0.01,26
0.33,0.015,0.01,26
0.335,0.015,0.01,26
0.325,0.01,0.02,17
0.34,0.015,0.01,26
0.345,0.015,0.01,26
0.17,0.005,0.02,17
0.14,0.015,0.015,26
0.35,0.015,0.01,17
0.105,0.005,0.02,17
0.005,0.02,0.01,17
0.015,0.02,0.01,17
0.15,0.005,0.02,17
0.125,0.02,0.015,17
0.02,0.02,0.01,17
0.245,0.01,0.015,26
0.03,0.02,0.01,17
0.05,0.02,0.01,17
0.06,0.02,0.01,17
0.1,0.02,0.01,17
0.105,0.02,0.01,17
0.135,0,0.02,11
0.11,0.02,0.01,17
0.115,0.02,0.01,17
0.12,0.02,0.01,17
0.135,0.02,0.01,17
0.165,0.02,0.01,17
0.17,0.02,0.01,17
0.18,0.02,0.01,17
0.19,0.02,0.01,17
0.195,0.02,0.01,17
0.205,0.02,0.01,17
0.21,0.02,0.01,17
0.215,0.02,0.01,17
0.22,0.02,0.01,17
0.225,0.02,0.01,17
0.23,0.02,0.01,17
0.235,0.02,0.01,17
0.24,0.02,0.01,17
0.055,0.005,0.02,17
0.245,0.02,0.01,17
0.25,0.02,0.01,17
0.255,0.02,0.01,17
0.265,0.02,0.01,17
0.24,0,0.015,17
0.27,0.02,0.01,17
0.11,0.02,0.02,11
0.285,0.02,0.01,17
0.065,0.015,0.015,26
0.29,0.02,0.01,17
0.295,0.02,0.01,17
0.305,0.02,0.01,17
0.31,0.02,0.01,17
0.325,0.02,0.01,17
0.26,0.015,0.02,17
0.335,0.02,0.01,17
0.34,0.02,0.01,17
0.345,0.02,0.01,17
0.35,0.02,0.01,11
0,0,0.015,11
0.005,0,0.015,17
0.01,0,0.015,17
0.185,0.015,0.02,17
0.07,0.005,0.015,26
0.02,0,0.015,17
0.03,0,0.015,17
0.035,0,0.015,17
0.205,0.01,0.02,17
0.04,0,0.015,17
0.095,0,0.015,17
0.055,0,0.015,17
0.075,0,0.015,17
0.08,0,0.015,17
0.085,0,0.015,17
0.105,0,0.015,17
0.11,0,0.015,17
0.015,0.005,0.015,26
0.115,0,0.015,17
0.125,0,0.015,17
0.085,0.015,0.015,26
0.155,0,0.015,17
0.34,0.015,0.02,17
0.17,0,0.015,17
0.18,0,0.015,17
0.185,0,0.015,17
0.195,0,0.015,17
0.21,0,0.015,17
0.22,0,0.015,17
0.225,0,0.015,17
0.115,0.005,0.02,17
0.115,0.02,0.015,17
0.23,0,0.015,17
0.25,0,0.015,17
0.255,0,0.015,17
0.315,0.01,0.02,17
0.27,0,0.015,17
0.275,0,0.015,17
0.28,0,0.015,17
0,0.02,0.02,7
0.285,0,0.015,17
0.235,0.015,0.015,26
0.29,0,0.015,17
0.295,0,0.015,17
0.3,0,0.015,17
0.31,0,0.015,17
0.315,0,0.015,17
0.325,0,0.015,17
0.33,0,0.015,17
0.255,0.005,0.02,17
0.335,0,0.015,17
0.345,0,0.015,17
0.35,0,0.015,11
0.005,0.005,0.015,26
0.3,0,0.02,11
0.025,0.005,0.015,26
0.2,0.02,0.015,17
0.035,0.005,0.015,26
0.04,0.005,0.015,26
0.045,0.005,0.015,26
0.245,0.02,0.015,17
0.05,0.005,0.015,26
0.055,0.005,0.015,26
0.06,0.005,0.015,26
0.155,0.015,0.02,17
0.065,0.005,0.015,26
0.08,0.005,0.015,26
0.085,0.005,0.015,26
0.095,0.005,0.015,26
0.105,0.005,0.015,26
0.11,0.005,0.015,26
0.115,0.005,0.015,26
0.07,0.02,0.015,17
0.135,0.005,0.015,26
0.155,0.005,0.015,26
0.165,0.005,0.015,26
0.17,0.005,0.015,26
0.175,0.005,0.015,26
0.18,0.005,0.015,26
0.185,0.005,0.015,26
0.05,0.015,0.015,26
0.19,0.005,0.015,26
0.195,0.005,0.015,26
0.205,0.005,0.015,26
0.255,0,0.02,11
0.21,0.005,0.015,26
0.305,0.015,0.015,26
0.22,0.005,0.015,26
0.225,0.005,0.015,26
0.235,0.005,0.015,26
0.245,0.01,0.02,17
0.24,0.005,0.015,26
0.255,0.005,0.015,26
0.26,0.005,0.015,26
0.265,0.005,0.015,26
0.275,0.005,0.015,26
0.305,0.005,0.015,26
0.32,0.005,0.015,26
0.34,0.005,0.015,26
0,0.01,0.015,17
0.005,0.01,0.015,26
0.01,0.01,0.015,26
0.015,0.01,0.015,26
0.24,0.015,0.015,26
0.02,0.01,0.015,26
0.035,0.01,0.015,26
0.045,0.01,0.015,26
0.055,0.01,0.015,26
0.065,0.01,0.015,26
0.075,0.01,0.015,26
0.08,0.01,0.015,26
0.095,0.01,0.015,26
0.105,0.01,0.015,26
0.04,0.015,0.02,17
0.11,0.01,0.015,26
0.04,0.005,0.02,17
0.115,0.01,0.015,26
0.125,0.01,0.015,26
0.125,0.02,0.02,11
0.13,0.01,0.015,26
0.135,0.01,0.015,26
0.14,0.01,0.015,26
0.145,0.01,0.015,26
0.17,0.01,0.015,26
0.175,0.015,0.02,17
0.175,0.01,0.015,26
0.18,0.01,0.015,26
0.19,0.01,0.015,26
0.2,0.01,0.015,26
0.215,0.01,0.015,26
0.22,0.01,0.015,26
0.225,0.01,0.015,26
0.23,0.01,0.015,26
0.25,0.01,0.015,26
0.26,0.01,0.015,26
0.27,0.01,0.015,26
0.28,0.01,0.015,26
0.285,0.01,0.015,26
0.29,0.01,0.015,26
0.295,0.01,0.015,26
0.175,0.02,0.015,17
0.3,0.01,0.015,26
0.21,0.01,0.02,17
0.2,0.015,0.015,26
0.305,0.01,0.015,26
0.31,0.01,0.015,26
0.32,0.01,0.015,26
0.325,0.01,0.015,26
0.33,0.01,0.015,26
0.335,0.01,0.015,26
0.165,0.02,0.015,17
0.34,0.01,0.015,26
0.345,0.01,0.015,26
0.29,0.02,0.015,17
0.27,0.015,0.015,26
0.35,0.01,0.015,17
0,0.015,0.015,17
0.005,0.015,0.015,26
0.01,0.015,0.015,26
0.155,0.02,0.02,11
0.025,0.015,0.015,26
0.125,0.01,0.02,17
0.035,0.015,0.015,26
0.16,0.015,0.02,17
0.04,0.015,0.015,26
0.07,0.015,0.015,26
0.285,0,0.02,11
0.075,0.015,0.015,26
0.1,0.015,0.015,26
0.09,0,0.02,11
0.11,0.015,0.015,26
0.14,0.01,0.02,17
0.115,0.015,0.015,26
0.12,0.015,0.015,26
0.125,0.015,0.015,26
0.13,0.015,0.015,26
0.135,0.015,0.015,26
0.15,0.015,0.015,26
0.155,0.015,0.015,26
0.16,0.015,0.015,26
0.165,0.015,0.015,26
0.17,0.015,0.015,26
0.18,0.015,0.015,26
0.185,0.015,0.015,26
0.135,0.01,0.02,17
0.195,0.015,0.015,26
0.22,0.015,0.015,26
0.245,0.015,0.015,26
0.25,0.015,0.015,26
0.26,0.015,0.015,26
0.275,0.015,0.015,26
0.285,0.015,0.015,26
0.29,0.015,0.015,26
0.3,0.015,0.015,26
0.12,0,0.02,11
0.31,0.015,0.015,26
0.315,0.015,0.015,26
0.325,0.015,0.015,26
0.33,0.015,0.015,26
0.335,0.015,0.015,26
0.35,0.015,0.015,17
0,0.02,0.015,11
0.005,0.02,0.015,17
0.02,0.02,0.015,17
0.03,0.02,0.015,17
0.13,0.02,0.015,17
0.035,0.02,0.015,17
0.045,0.02,0.015,17
0.055,0.02,0.015,17
0.085,0.015,0.02,17
0.06,0.02,0.015,17
0.155,0.005,0.02,17
0.06,0.005,0.02,17
0.065,0.02,0.015,17
0.075,0.02,0.015,17
0.08,0.02,0.015,17
0.235,0.02,0.02,11
0.09,0.02,0.015,17
0.095,0.02,0.015,17
0.1,0.02,0.015,17
0.1,0.02,0.02,11
0.105,0.02,0.015,17
0.11,0.02,0.015,17
0.12,0.02,0.015,17
0.215,0.02,0.015,17
0.135,0.02,0.015,17
0.145,0.02,0.015,17
0.155,0.02,0.015,17
0.185,0.02,0.015,17
0.195,0.02,0.015,17
0.07,0.01,0.02,17
0.21,0.02,0.015,17
0.225,0.02,0.015,17
0.24,0.02,0.015,17
0.25,0.02,0.015,17
0.26,0.02,0.015,17
0.275,0.02,0.015,17
0.28,0.02,0.015,17
0.285,0.02,0.015,17
0.295,0.02,0.015,17
0.3,0.02,0.015,17
0.315,0.02,0.015,17
0.325,0.02,0.015,17
0.33,0.02,0.015,17
0.335,0.02,0.015,17
0.12,0.005,0.02,17
0.34,0.02,0.015,17
0.345,0.02,0.015,17
0.01,0,0.02,11
0.015,0,0.02,11
0.02,0,0.02,11
0.03,0,0.02,11
0.035,0,0.02,11
0.04,0,0.02,11
0.045,0,0.02,11
0.05,0,0.02,11
0.055,0,0.02,11
0.065,0,0.02,11
0.075,0,0.02,11
0.08,0,0.02,11
0.085,0,0.02,11
0.095,0,0.02,11
0.1,0,0.02,11
0.11,0,0.02,11
0.125,0,0.02,11
0.13,0,0.02,11
0.145,0,0.02,11
0.195,0.01,0.02,17
0.16,0,0.02,11
0.205,0,0.02,11
0.165,0,0.02,11
0.17,0,0.02,11
0.18,0,0.02,11
0.2,0,0.02,11
0.21,0,0.02,11
0.215,0,0.02,11
0.22,0,0.02,11
0.235,0,0.02,11
0.245,0,0.02,11
0.25,0,0.02,11
0.26,0,0.02,11
0.27,0,0.02,11
0.275,0,0.02,11
0.28,0,0.02,11
0.29,0,0.02,11
0.305,0,0.02,11
0.31,0,0.02,11
0.145,0.005,0.02,17
0.315,0,0.02,11
0.32,0,0.02,11
0.325,0,0.02,11
0.335,0,0.02,11
0.34,0,0.02,11
0.345,0,0.02,11
0.01,0.005,0.02,17
0.025,0.005,0.02,17
0.03,0.005,0.02,17
0.035,0.005,0.02,17
0.045,0.005,0.02,17
0.07,0.005,0.02,17
0.29,0.005,0.02,17
0.075,0.005,0.02,17
0.08,0.005,0.02,17
0.165,0.005,0.02,17
0.085,0.005,0.02,17
0.09,0.005,0.02,17
0.1,0.005,0.02,17
0.11,0.005,0.02,17
0.125,0.005,0.02,17
0.16,0.005,0.02,17
0.175,0.005,0.02,17
0.195,0.005,0.02,17
0.065,0.015,0.02,17
0.205,0.005,0.02,17
0.22,0.005,0.02,17
0.23,0.005,0.02,17
0.24,0.005,0.02,17
0.245,0.005,0.02,17
0.265,0.005,0.02,17
0.28,0.005,0.02,17
0.285,0.005,0.02,17
0.295,0.005,0.02,17
0.3,0.005,0.02,17
0.31,0.005,0.02,17
0.315,0.005,0.02,17
0.32,0.005,0.02,17
0.325,0.005,0.02,17
0.335,0.005,0.02,17
0.34,0.005,0.02,17
0.35,0.005,0.02,11
0.205,0.015,0.02,17
0.02,0.01,0.02,17
0.025,0.01,0.02,17
0.03,0.01,0.02,17
0.035,0.01,0.02,17
0.055,0.01,0.02,17
0.06,0.01,0.02,17
0.145,0.01,0.02,17
0.075,0.01,0.02,17
0.085,0.01,0.02,17
0.1,0.01,0.02,17
0.11,0.01,0.02,17
0.12,0.01,0.02,17
0.13,0.01,0.02,17
0.15,0.01,0.02,17
0.165,0.01,0.02,17
0.17,0.01,0.02,17
0.175,0.01,0.02,17
0.18,0.01,0.02,17
0.185,0.01,0.02,17
0.19,0.01,0.02,17
0.225,0.01,0.02,17
0.23,0.01,0.02,17
0.235,0.01,0.02,17
0.25,0.01,0.02,17
0.275,0.01,0.02,17
0.28,0.01,0.02,17
0.285,0.01,0.02,17
0.29,0.01,0.02,17
0.3,0.01,0.02,17
0.31,0.01,0.02,17
0.32,0.01,0.02,17
0.335,0.01,0.02,17
0.34,0.01,0.02,17
0.345,0.01,0.02,17
0.35,0.01,0.02,11
0,0.015,0.02,11
0.005,0.015,0.02,17
0.01,0.015,0.02,17
0.32,0.015,0.02,17
0.015,0.015,0.02,17
0.02,0.015,0.02,17
0.055,0.015,0.02,17
0.07,0.015,0.02,17
0.075,0.015,0.02,17
0.09,0.015,0.02,17
0.29,0.015,0.02,17
0.1,0.015,0.02,17
0.11,0.015,0.02,17
0.115,0.015,0.02,17
0.185,0.02,0.02,11
0.13,0.02,0.02,11
0.12,0.015,0.02,17
0.13,0.015,0.02,17
0.14,0.015,0.02,17
0.17,0.015,0.02,17
0.18,0.015,0.02,17
0.23,0.015,0.02,17
0.24,0.015,0.02,17
0.25,0.015,0.02,17
0.255,0.015,0.02,17
0.265,0.015,0.02,17
0.27,0.015,0.02,17
0.3,0.015,0.02,17
0.305,0.015,0.02,17
0.315,0.015,0.02,17
0.325,0.015,0.02,17
0.35,0.015,0.02,11
0.005,0.02,0.02,11
0.02,0.02,0.02,11
0.025,0.02,0.02,11
0.035,0.02,0.02,11
0.04,0.02,0.02,11
0.045,0.02,0.02,11
0.05,0.02,0.02,11
0.06,0.02,0.02,11
0.065,0.02,0.02,11
0.07,0.02,0.02,11
0.09,0.02,0.02,11
0.095,0.02,0.02,11
0.105,0.02,0.02,11
0.135,0.02,0.02,11
0.15,0.02,0.02,11
0.16,0.02,0.02,11
0.165,0.02,0.02,11
0.17,0.02,0.02,11
0.175,0.02,0.02,11
0.18,0.02,0.02,11
0.195,0.02,0.02,11
0.2,0.02,0.02,11
0.215,0.02,0.02,11
0.22,0.02,0.02,11
0.225,0.02,0.02,11
0.245,0.02,0.02,11
0.25,0.02,0.02,11
0.255,0.02,0.02,11
0.27,0.02,0.02,11
0.275,0.02,0.02,11
0.285,0.02,0.02,11
0.295,0.02,0.02,11
0.315,0.02,0.02,11
0.325,0.02,0.02,11
0.33,0.02,0.02,11
0.335,0.02,0.02,11
0.34,0.02,0.02,11
0.345,0.02,0.02,11
