XML Loading result: No error
Validating XML...
XML validated successfully...
volume
 id: cantilever
 primitive: cube
 scale: 0.20000000000000004, 0.02, 0.02
 translate: 0, 0, 0
 rot: 0, 0, 0
 color: 0,0,0
 
volume
 id: anchor
 primitive: cube
 scale: 0.005, 0.021, 0.021
 translate: -0.0025, -0.0005, -0.0005
 color: 255, 0, 0
 
volume
 id: loadpoint
 primitive: cube
 scale: 0.005, 0.021, 0.021
 translate: 0.19750000000000004, -0.0005, -0.0005
 color: 0, 255, 0
 
volume
 id: trace
 primitive: cube
 scale: 0.005, 0.021, 0.021
 translate: 0.19750000000000004, -0.0005, -0.0005
 color: 0, 255, 0
 
loadcase
 id: L1
  fix
   volume: anchor
  constant
   volume: loadpoint
   magnitude: 0.0, 1.0, 0.0
  accel
   volume: cantilever
   magnitude: 0, 0, 0
 
material
 id: steel-lattice
  elasticity
   modulus: 113.8
   unit: GPa
  lattice
   cell: cubic
   random: true
   vertexmass: 0.00034859
   size: 0.005, 0.005, 0.005
   bardiam: 0.001
   volume: cantilever
   offset: 0, 0, 0
 
rules
 vol: cantilever
 gpu_acceleration: true
  damping
   amount: 0.01
  material
   matid: steel-lattice
  output
   destination: window
   size: 1920, 1080
  load
   load-id: L1
  telemetry
   output_dir: scenarios\random_gpu\output\varying_x\euler\0.2_1
  integration
   method: euler
   time_step: 1e-06
  stop
   simulation_time: 500
   wall_clock_time: 0
   time_unit: ms
 
is_random 1
1
cantilever xMin: 0
cantilever xMax: 0.2
cantilever yMin: 0
cantilever yMax: 0.02
cantilever zMin: 0
cantilever zMax: 0.02
1
anchor xMin: -0.0025
anchor xMax: 0.0025
anchor yMin: -0.0005
anchor yMax: 0.0205
anchor zMin: -0.0005
anchor zMax: 0.0205
1
loadpoint xMin: 0.1975
loadpoint xMax: 0.2025
loadpoint yMin: -0.0005
loadpoint yMax: 0.0205
loadpoint zMin: -0.0005
loadpoint zMax: 0.0205
1
trace xMin: 0.1975
trace xMax: 0.2025
trace yMin: -0.0005
trace yMax: 0.0205
trace zMin: -0.0005
trace zMax: 0.0205
Lattice is random: 1
Building random lattice
Output dir: scenarios\random_gpu\output\varying_x\euler\0.2_1
All masses were unique
Calculated number of masses: 1025
Max Spring Connections: 20
Min Spring Connections: 11
Average Spring Connections: 19.8868
Max Spring Length: 0.0168352
Min Spring Length: 0.00337989
Max Spring Stiffness: 2.64442e+07
Min Spring Stiffness: 5.30902e+06
Average Spring Stiffness: 1.39212e+07
1025 masses
initial centroid0.0110755
Using Euler integration method
GPU Acceleration Successfully Enabled
Sum forces y: 0
Release damping at: 500ms
Release point position: 0.0110806
Post Update: 
Elapsed Seconds: 467.735
Avg Time Per Step: inf
Masses per Second: 0
Springs per Second: 0
