
==============NVSMI LOG==============

Timestamp                           : Sun Feb 24 20:47:51 2019
Driver Version                      : 410.78
CUDA Version                        : 10.0

Attached GPUs                       : 3
GPU 00000000:1A:00.0
    Product Name                    : GeForce RTX 2080 Ti
    Product Brand                   : GeForce
    Display Mode                    : Disabled
    Display Active                  : Disabled
    Persistence Mode                : Disabled
    Accounting Mode                 : Disabled
    Accounting Mode Buffer Size     : 4000
    Driver Model
        Current                     : N/A
        Pending                     : N/A
    Serial Number                   : N/A
    GPU UUID                        : GPU-8e919e44-b9b5-af78-0727-d521aca7d0a0
    Minor Number                    : 0
    VBIOS Version                   : 90.02.0B.00.C7
    MultiGPU Board                  : No
    Board ID                        : 0x1a00
    GPU Part Number                 : N/A
    Inforom Version
        Image Version               : G001.0000.02.04
        OEM Object                  : 1.1
        ECC Object                  : N/A
        Power Management Object     : N/A
    GPU Operation Mode
        Current                     : N/A
        Pending                     : N/A
    GPU Virtualization Mode
        Virtualization mode         : None
    IBMNPU
        Relaxed Ordering Mode       : N/A
    PCI
        Bus                         : 0x1A
        Device                      : 0x00
        Domain                      : 0x0000
        Device Id                   : 0x1E0710DE
        Bus Id                      : 00000000:1A:00.0
        Sub System Id               : 0x150319DA
        GPU Link Info
            PCIe Generation
                Max                 : 3
                Current             : 3
            Link Width
                Max                 : 16x
                Current             : 16x
        Bridge Chip
            Type                    : N/A
            Firmware                : N/A
        Replays since reset         : 0
        Tx Throughput               : 0 KB/s
        Rx Throughput               : 0 KB/s
    Fan Speed                       : 52 %
    Performance State               : P0
    Clocks Throttle Reasons
        Idle                        : Not Active
        Applications Clocks Setting : Not Active
        SW Power Cap                : Not Active
        HW Slowdown                 : Not Active
            HW Thermal Slowdown     : Not Active
            HW Power Brake Slowdown : Not Active
        Sync Boost                  : Not Active
        SW Thermal Slowdown         : Not Active
        Display Clock Setting       : Not Active
    FB Memory Usage
        Total                       : 10989 MiB
        Used                        : 1 MiB
        Free                        : 10988 MiB
    BAR1 Memory Usage
        Total                       : 256 MiB
        Used                        : 3 MiB
        Free                        : 253 MiB
    Compute Mode                    : Default
    Utilization
        Gpu                         : 100 %
        Memory                      : 53 %
        Encoder                     : 0 %
        Decoder                     : 0 %
    Encoder Stats
        Active Sessions             : 0
        Average FPS                 : 0
        Average Latency             : 0
    FBC Stats
        Active Sessions             : 0
        Average FPS                 : 0
        Average Latency             : 0
    Ecc Mode
        Current                     : N/A
        Pending                     : N/A
    ECC Errors
        Volatile
            SRAM Correctable        : N/A
            SRAM Uncorrectable      : N/A
            DRAM Correctable        : N/A
            DRAM Uncorrectable      : N/A
        Aggregate
            SRAM Correctable        : N/A
            SRAM Uncorrectable      : N/A
            DRAM Correctable        : N/A
            DRAM Uncorrectable      : N/A
    Retired Pages
        Single Bit ECC              : N/A
        Double Bit ECC              : N/A
        Pending                     : N/A
    Temperature
        GPU Current Temp            : 59 C
        GPU Shutdown Temp           : 94 C
        GPU Slowdown Temp           : 91 C
        GPU Max Operating Temp      : 89 C
        Memory Current Temp         : N/A
        Memory Max Operating Temp   : N/A
    Power Readings
        Power Management            : Supported
        Power Draw                  : 78.17 W
        Power Limit                 : 260.00 W
        Default Power Limit         : 260.00 W
        Enforced Power Limit        : 260.00 W
        Min Power Limit             : 100.00 W
        Max Power Limit             : 300.00 W
    Clocks
        Graphics                    : 1860 MHz
        SM                          : 1860 MHz
        Memory                      : 7000 MHz
        Video                       : 1725 MHz
    Applications Clocks
        Graphics                    : N/A
        Memory                      : N/A
    Default Applications Clocks
        Graphics                    : N/A
        Memory                      : N/A
    Max Clocks
        Graphics                    : 2160 MHz
        SM                          : 2160 MHz
        Memory                      : 7000 MHz
        Video                       : 1950 MHz
    Max Customer Boost Clocks
        Graphics                    : N/A
    Clock Policy
        Auto Boost                  : N/A
        Auto Boost Default          : N/A
    Processes                       : None

